253 23 231
23 231 253
231 23 253
134 189 274
189 134 274
274 134 189
96 118 293
293 96 118
118 96 293
207 93 164
93 164 207
164 93 207
123 9 59
9 59 123
59 9 123
271 257 282
282 257 271
257 271 282
52 53 101
53 52 101
101 52 53
38 74 259
259 38 74
74 38 259
273 132 174
174 132 273
132 174 273
135 86 102
86 102 135
102 86 135
32 120 289
289 32 120
120 32 289
270 33 71
71 33 270
33 71 270
280 36 265
36 265 280
265 36 280
107 108 133
133 107 108
108 107 133
124 13 125
13 124 125
125 13 124
290 31 261
31 261 290
261 31 290
267 55 131
55 131 267
131 55 267
143 116 263
263 116 143
116 143 263
227 149 255
149 227 255
255 149 227
140 99 150
150 99 140
99 140 150
248 4 185
185 4 248
4 185 248
70 17 111
17 70 111
111 17 70
215 241 278
241 215 278
278 215 241
79 15 62
15 62 79
62 15 79
47 171 178
178 47 171
171 47 178
206 205 260
260 205 206
205 206 260
173 244 297
244 173 297
297 173 244
283 109 144
144 109 283
109 144 283
226 27 216
216 27 226
27 216 226
291 24 281
24 281 291
281 24 291
220 180 191
191 180 220
180 191 220
179 157 212
157 179 212
212 157 179
146 58 84
84 58 146
58 84 146
176 153 286
153 176 286
286 153 176
240 26 100
26 100 240
100 26 240
11 113 193
193 11 113
113 11 193
141 92 222
92 141 222
222 92 141
76 20 122
20 76 122
122 20 76
34 223 225
225 34 223
223 34 225
192 211 292
211 192 292
292 192 211
145 221 266
221 145 266
266 145 221
187 30 262
30 187 262
262 30 187
115 3 85
85 3 115
3 85 115
295 154 249
154 249 295
249 154 295
94 127 299
127 94 299
299 94 127
28 6 181
181 6 28
6 28 181
158 147 188
147 158 188
188 147 158
268 66 204
66 204 268
204 66 268
16 69 89
69 16 89
89 16 69
151 200 230
230 151 200
200 151 230
287 19 46
46 19 287
19 46 287
106 60 161
161 60 106
60 106 161
18 10 246
246 10 18
10 18 246
103 136 177
177 103 136
136 103 177
228 7 87
7 87 228
87 7 228
12 169 300
169 12 300
300 12 169
156 25 264
25 156 264
264 25 156
44 40 190
40 44 190
190 40 44
197 67 166
67 166 197
166 67 197
235 1 198
1 198 235
198 1 235
2 98 224
98 2 224
224 2 98
95 22 165
22 95 165
165 22 95
258 159 208
208 159 258
159 208 258
277 21 68
21 68 277
68 21 277
5 112 209
209 5 112
112 5 209
210 77 269
77 210 269
269 77 210
238 43 242
43 238 242
242 43 238
56 184 201
184 56 201
201 56 184
82 49 233
233 49 82
49 82 233
73 105 175
175 73 105
105 73 175
39 45 272
45 39 272
272 39 45
219 57 199
57 199 219
199 57 219
243 63 298
298 63 243
63 243 298
294 37 183
183 37 294
37 183 294
104 90 121
121 90 104
90 104 121
97 119 250
250 97 119
119 97 250
142 130 276
276 130 142
130 142 276
64 163 275
163 64 275
275 64 163
88 65 217
65 88 217
217 65 88
129 61 203
61 129 203
203 61 129
214 137 252
137 214 252
252 137 214
172 81 128
128 81 172
81 128 172
202 148 213
148 202 213
213 148 202
239 50 186
186 50 239
50 186 239
256 75 229
229 75 256
75 229 256
35 234 237
237 35 234
234 35 237
288 218 251
218 251 288
251 218 288
48 83 170
83 48 170
170 48 83
117 80 245
80 117 245
245 80 117
41 42 126
126 41 42
42 41 126
168 51 285
51 168 285
285 51 168
91 72 296
296 72 91
72 91 296
196 155 160
155 160 196
160 155 196
139 54 167
54 139 167
167 54 139
78 8 152
8 78 152
152 8 78
114 232 247
232 114 247
247 114 232
14 110 236
236 14 110
110 14 236
162 194 195
195 162 194
194 162 195
284 138 182
182 138 284
138 182 284
279 29 254
29 254 279
254 29 279
