1731 1851 2528
1851 1731 2528
2528 1731 1851
1308 7 1207
1207 7 1308
7 1207 1308
2548 623 1645
1645 623 2548
623 1645 2548
2820 637 2957
2957 637 2820
637 2820 2957
628 1760 2592
2592 628 1760
1760 628 2592
2225 1994 2539
2539 1994 2225
1994 2225 2539
2550 391 1822
391 1822 2550
1822 391 2550
1032 444 1511
444 1032 1511
1511 444 1032
2906 15 1939
1939 15 2906
15 1939 2906
2931 2175 2812
2812 2175 2931
2175 2812 2931
1915 2084 2795
2795 1915 2084
2084 1915 2795
653 1504 1934
1504 653 1934
1934 653 1504
2176 597 755
755 597 2176
597 755 2176
1742 926 990
990 926 1742
926 990 1742
2379 879 1788
1788 879 2379
879 1788 2379
2482 525 2511
2511 525 2482
525 2482 2511
132 37 2431
37 132 2431
2431 37 132
503 358 2178
358 503 2178
2178 358 503
801 45 2982
2982 45 801
45 801 2982
1774 1330 2146
2146 1330 1774
1330 1774 2146
813 13 1787
1787 13 813
13 813 1787
1224 1311 2477
1311 1224 2477
2477 1224 1311
586 1317 2279
2279 586 1317
1317 586 2279
84 2322 2665
2322 84 2665
2665 84 2322
998 327 2177
327 998 2177
2177 327 998
2481 2023 2536
2023 2481 2536
2536 2023 2481
2952 1811 2021
1811 2021 2952
2021 1811 2952
2403 475 2675
2675 475 2403
475 2403 2675
2566 368 483
483 368 2566
368 483 2566
1365 1442 1720
1442 1365 1720
1720 1365 1442
2143 840 2132
840 2132 2143
2132 840 2143
2117 2456 2750
2456 2117 2750
2750 2117 2456
1358 265 2119
265 1358 2119
2119 265 1358
633 339 2390
2390 339 633
339 633 2390
2222 1602 2404
1602 2222 2404
2404 1602 2222
279 999 2838
999 279 2838
2838 279 999
2007 257 848
848 257 2007
257 848 2007
2074 2244 2809
2244 2074 2809
2809 2074 2244
676 1956 2962
1956 676 2962
2962 676 1956
2423 212 904
904 212 2423
212 904 2423
965 103 1375
103 965 1375
1375 103 965
1322 761 2852
2852 761 1322
761 1322 2852
284 989 1260
989 284 1260
1260 284 989
589 1767 2848
2848 589 1767
1767 589 2848
2790 625 1347
1347 625 2790
625 1347 2790
2157 1534 2620
2620 1534 2157
1534 2157 2620
1306 581 2810
581 1306 2810
2810 581 1306
2352 1258 2351
1258 2351 2352
2351 1258 2352
1781 1281 1770
1281 1770 1781
1770 1281 1781
96 1111 1878
1111 96 1878
1878 96 1111
91 889 2705
889 91 2705
2705 91 889
1320 2260 2983
2983 1320 2260
2260 1320 2983
1689 1637 2100
1637 1689 2100
2100 1637 1689
2264 1089 2748
1089 2264 2748
2748 1089 2264
2959 221 2856
221 2856 2959
2856 221 2959
1846 2527 2741
2527 1846 2741
2741 1846 2527
366 551 565
565 366 551
551 366 565
2058 2326 2597
2326 2058 2597
2597 2058 2326
893 1628 2128
1628 893 2128
2128 893 1628
707 3 2179
2179 3 707
3 707 2179
160 1933 2041
2041 160 1933
1933 160 2041
216 656 2744
2744 216 656
656 216 2744
2161 727 1681
727 1681 2161
1681 727 2161
862 44 86
86 44 862
44 86 862
367 53 1901
53 367 1901
1901 53 367
1971 1964 2540
1964 1971 2540
2540 1964 1971
961 82 2768
82 961 2768
2768 82 961
2941 1890 2970
2970 1890 2941
1890 2941 2970
2421 1823 2611
1823 2421 2611
2611 1823 2421
968 1081 1830
1081 968 1830
1830 968 1081
2667 513 2213
513 2213 2667
2213 513 2667
1180 1521 2805
1521 1180 2805
2805 1180 1521
2992 1464 1858
1858 1464 2992
1464 1858 2992
2689 1482 1595
1482 1595 2689
1595 1482 2689
938 1590 2124
2124 938 1590
1590 938 2124
629 108 2371
108 629 2371
2371 108 629
1079 2542 2623
2542 1079 2623
2623 1079 2542
2567 2154 2383
2383 2154 2567
2154 2383 2567
1249 2526 2654
2526 1249 2654
2654 1249 2526
2980 754 934
934 754 2980
754 934 2980
2233 1000 1057
1057 1000 2233
1000 1057 2233
387 1790 1981
1981 387 1790
1790 387 1981
2729 1290 1433
1433 1290 2729
1290 1433 2729
309 1092 2266
1092 309 2266
2266 309 1092
1624 404 2209
2209 404 1624
404 1624 2209
2353 1432 1979
1432 1979 2353
1979 1432 2353
1203 495 520
495 520 1203
520 495 1203
2776 1725 2991
2991 1725 2776
1725 2776 2991
1876 2585 2697
2697 1876 2585
2585 1876 2697
344 1687 2367
2367 344 1687
1687 344 2367
1080 213 542
542 213 1080
213 542 1080
1959 875 2890
875 1959 2890
2890 875 1959
759 936 1336
936 759 1336
1336 759 936
23 1172 1711
1172 23 1711
1711 23 1172
2503 1359 2355
2355 1359 2503
1359 2355 2503
1423 27 2691
2691 27 1423
27 1423 2691
613 903 2494
2494 613 903
903 613 2494
280 2091 2227
2227 280 2091
2091 280 2227
1863 1527 2475
1527 1863 2475
2475 1527 1863
1394 602 1438
1438 602 1394
602 1394 1438
2644 1350 2347
2347 1350 2644
1350 2347 2644
1387 2616 2911
2616 1387 2911
2911 1387 2616
2350 747 1006
1006 747 2350
747 1006 2350
2694 410 2999
410 2694 2999
2999 410 2694
2432 1184 1930
1930 1184 2432
1184 1930 2432
2553 1955 2976
2976 1955 2553
1955 2553 2976
1354 1477 2682
1477 1354 2682
2682 1354 1477
1285 2507 2937
2937 1285 2507
2507 1285 2937
2328 402 2346
402 2328 2346
2346 402 2328
1722 1143 1566
1143 1566 1722
1566 1143 1722
2723 702 1160
1160 702 2723
702 1160 2723
273 323 2587
2587 273 323
323 273 2587
723 2740 2989
2740 723 2989
2989 723 2740
1783 1 841
1 841 1783
841 1 1783
743 289 2516
289 743 2516
2516 289 743
1338 1517 1540
1540 1338 1517
1517 1338 1540
18 1757 2114
1757 18 2114
2114 18 1757
558 587 1417
587 558 1417
1417 558 587
1978 407 2276
407 1978 2276
2276 407 1978
1699 346 1768
1768 346 1699
346 1699 1768
1356 1244 2766
1244 1356 2766
2766 1244 1356
1268 1151 2754
2754 1151 1268
1151 1268 2754
2986 758 2555
758 2555 2986
2555 758 2986
2973 80 880
80 880 2973
880 80 2973
1758 455 2106
2106 455 1758
455 1758 2106
1943 734 2652
734 1943 2652
2652 734 1943
1187 222 621
621 222 1187
222 621 1187
2289 1861 2217
1861 2217 2289
2217 1861 2289
2855 960 2345
960 2345 2855
2345 960 2855
356 16 1072
16 356 1072
1072 16 356
2422 1666 2261
1666 2261 2422
2261 1666 2422
185 646 2155
646 185 2155
2155 185 646
70 286 937
286 70 937
937 70 286
1494 919 1404
1404 919 1494
919 1404 1494
357 271 2149
271 357 2149
2149 271 357
1543 379 578
379 578 1543
578 379 1543
2823 133 522
522 133 2823
133 522 2823
467 1288 2485
1288 467 2485
2485 467 1288
1744 1204 1463
1204 1463 1744
1463 1204 1744
408 389 1325
1325 389 408
389 408 1325
2414 881 2936
2936 881 2414
881 2414 2936
1115 912 2185
2185 912 1115
912 1115 2185
1800 604 2311
2311 604 1800
604 1800 2311
174 1342 1499
1342 174 1499
1499 174 1342
2 1579 2268
2268 2 1579
1579 2 2268
2875 2653 2717
2717 2653 2875
2653 2717 2875
2454 526 2395
526 2395 2454
2395 526 2454
2509 33 1648
1648 33 2509
33 1648 2509
1542 1275 1816
1816 1275 1542
1275 1542 1816
767 223 2075
223 767 2075
2075 223 767
2393 1015 1838
1838 1015 2393
1015 1838 2393
1441 832 2042
832 1441 2042
2042 832 1441
196 684 884
884 196 684
684 196 884
1573 2361 2993
2361 1573 2993
2993 1573 2361
1617 1118 2025
1118 1617 2025
2025 1118 1617
2208 2309 2762
2309 2208 2762
2762 2208 2309
1344 1004 1052
1052 1004 1344
1004 1052 1344
2330 1005 1690
1690 1005 2330
1005 1690 2330
2241 845 2332
845 2241 2332
2332 845 2241
1377 805 2034
805 1377 2034
2034 805 1377
1726 1348 2835
1348 1726 2835
2835 1348 1726
854 1436 2866
2866 854 1436
1436 854 2866
116 658 1804
658 116 1804
1804 116 658
1683 1575 1678
1575 1678 1683
1678 1575 1683
815 555 2787
2787 555 815
555 815 2787
953 2300 2455
2300 953 2455
2455 953 2300
148 2786 2826
2826 148 2786
2786 148 2826
2907 232 301
232 301 2907
301 232 2907
419 996 2569
2569 419 996
996 419 2569
2385 1372 2767
1372 2385 2767
2767 1372 2385
935 593 1219
593 935 1219
1219 593 935
1592 630 1466
630 1466 1592
1466 630 1592
414 2159 2470
2159 414 2470
2470 414 2159
65 2315 2954
2954 65 2315
2315 65 2954
1633 973 1944
1944 973 1633
973 1633 1944
2420 952 2078
2078 952 2420
952 2078 2420
1963 905 1480
1480 905 1963
905 1480 1963
760 2044 2448
2448 760 2044
2044 760 2448
719 779 1825
779 719 1825
1825 719 779
413 1003 2621
1003 413 2621
2621 413 1003
2679 247 2843
2843 247 2679
247 2679 2843
376 99 2568
99 376 2568
2568 99 376
800 865 1968
1968 800 865
865 800 1968
49 145 2565
2565 49 145
145 49 2565
478 439 2424
439 478 2424
2424 439 478
2022 1772 2039
1772 2022 2039
2039 1772 2022
1693 493 1114
493 1114 1693
1114 493 1693
1684 104 2518
104 1684 2518
2518 104 1684
1662 1197 2370
1197 1662 2370
2370 1197 1662
533 1300 1447
1300 533 1447
1447 533 1300
2844 1292 2476
1292 2476 2844
2476 1292 2844
1710 1450 2582
2582 1450 1710
1450 1710 2582
1565 852 2537
852 1565 2537
2537 852 1565
972 51 293
51 293 972
293 51 972
2948 147 1473
1473 147 2948
147 1473 2948
2109 1277 2760
2760 1277 2109
1277 2109 2760
1803 1075 2685
1075 1803 2685
2685 1075 1803
1582 1924 2063
2063 1582 1924
1924 1582 2063
1555 1745 2286
1745 1555 2286
2286 1555 1745
1240 281 1754
1754 281 1240
281 1240 1754
2318 853 2487
2487 853 2318
853 2318 2487
20 169 2319
2319 20 169
169 20 2319
487 1709 1738
1738 487 1709
1709 487 1738
1992 74 1841
1841 74 1992
74 1841 1992
137 445 826
445 137 826
826 137 445
1024 1301 1792
1301 1024 1792
1792 1024 1301
1230 2677 2707
2677 1230 2707
2707 1230 2677
1733 1216 2791
1216 1733 2791
2791 1216 1733
570 915 1041
915 570 1041
1041 570 915
1609 2497 2580
2580 1609 2497
2497 1609 2580
230 466 2929
2929 230 466
466 230 2929
2229 670 1653
670 1653 2229
1653 670 2229
482 149 2195
2195 149 482
149 482 2195
2167 750 1137
1137 750 2167
750 1137 2167
1594 1641 2283
1641 1594 2283
2283 1594 1641
1435 370 1812
1812 370 1435
370 1435 1812
1271 638 1035
1035 638 1271
638 1035 1271
585 1266 1814
1814 585 1266
1266 585 1814
1931 353 1849
1849 353 1931
353 1849 1931
1663 106 2561
2561 106 1663
106 1663 2561
2028 378 1155
1155 378 2028
378 1155 2028
1109 430 1556
1556 430 1109
430 1109 1556
1759 326 817
326 817 1759
817 326 1759
398 1100 2947
1100 398 2947
2947 398 1100
1840 250 1335
1335 250 1840
250 1335 1840
678 715 1046
1046 678 715
715 678 1046
2305 97 2997
97 2305 2997
2997 97 2305
545 394 2090
394 545 2090
2090 394 545
635 694 1701
1701 635 694
694 635 1701
1139 708 1916
1916 708 1139
708 1139 1916
1360 1586 2851
1586 1360 2851
2851 1360 1586
2837 1349 1889
1349 1889 2837
1889 1349 2837
2069 1159 1705
1705 1159 2069
1159 1705 2069
2928 162 1479
1479 162 2928
162 1479 2928
1008 675 2977
2977 675 1008
675 1008 2977
1516 1304 1993
1993 1304 1516
1304 1516 1993
910 720 783
720 783 910
783 720 910
725 140 1162
1162 140 725
140 725 1162
2769 143 2046
2046 143 2769
143 2046 2769
1821 2163 2310
2163 1821 2310
2310 1821 2163
795 207 2215
207 795 2215
2215 207 795
911 226 1229
1229 226 911
226 911 1229
2676 131 828
828 131 2676
131 828 2676
567 592 2681
2681 567 592
592 567 2681
762 2255 2662
2662 762 2255
2255 762 2662
236 211 2898
211 236 2898
2898 211 236
123 1674 2173
2173 123 1674
1674 123 2173
1475 1185 1721
1185 1475 1721
1721 1185 1475
2630 2076 2818
2076 2630 2818
2818 2076 2630
641 98 2793
2793 98 641
98 641 2793
2591 710 1672
1672 710 2591
710 1672 2591
1323 1454 2660
2660 1323 1454
1454 1323 2660
1563 2205 2465
2205 1563 2465
2465 1563 2205
1644 603 674
674 603 1644
603 674 1644
1098 1206 2442
2442 1098 1206
1206 1098 2442
342 69 2839
69 342 2839
2839 69 342
2747 1703 2281
1703 2281 2747
2281 1703 2747
120 518 1038
1038 120 518
518 120 1038
248 2525 2596
2596 248 2525
2525 248 2596
1900 2234 2552
2234 1900 2552
2552 1900 2234
2228 1903 2696
2696 1903 2228
1903 2228 2696
1031 233 243
243 233 1031
233 243 1031
2295 1148 2742
2742 1148 2295
1148 2295 2742
1954 712 1501
712 1501 1954
1501 712 1954
362 1192 1835
1192 362 1835
1835 362 1192
2192 550 1261
1261 550 2192
550 1261 2192
1626 1049 1428
1428 1049 1626
1049 1428 1626
320 1113 2275
1113 320 2275
2275 320 1113
808 244 2499
244 808 2499
2499 244 808
1355 6 652
652 6 1355
6 652 1355
1671 939 2248
939 1671 2248
2248 939 1671
1239 1736 1752
1736 1239 1752
1752 1239 1736
1696 636 1691
636 1691 1696
1691 636 1696
632 354 2572
354 632 2572
2572 354 632
1898 1782 2770
1782 1898 2770
2770 1782 1898
2135 1472 2080
1472 2080 2135
2080 1472 2135
1105 428 618
428 618 1105
618 428 1105
458 933 2573
2573 458 933
933 458 2573
1157 79 1500
79 1157 1500
1500 79 1157
699 1074 1584
1584 699 1074
1074 699 1584
333 642 1680
642 333 1680
1680 333 642
2562 1067 2743
2743 1067 2562
1067 2562 2743
2181 1434 1572
1434 1572 2181
1572 1434 2181
649 1546 2998
1546 649 2998
2998 649 1546
1996 1257 1449
1257 1449 1996
1449 1257 1996
1805 749 2388
2388 749 1805
749 1805 2388
1580 2278 2703
2703 1580 2278
2278 1580 2703
1223 1448 1649
1448 1223 1649
1649 1223 1448
2463 181 2211
181 2211 2463
2211 181 2463
2160 176 906
176 906 2160
906 176 2160
1613 270 1034
1034 270 1613
270 1034 1613
2712 1247 1440
1247 1440 2712
1440 1247 2712
1088 1213 2549
1213 1088 2549
2549 1088 1213
2995 1212 1598
1598 1212 2995
1212 1598 2995
997 744 2574
2574 744 997
744 997 2574
1862 2203 2588
2203 1862 2588
2588 1862 2203
377 194 2624
2624 194 377
194 377 2624
1470 2363 2912
2912 1470 2363
2363 1470 2912
2020 1491 1848
1848 1491 2020
1491 1848 2020
1011 421 970
421 970 1011
970 421 1011
1167 316 1896
1896 316 1167
316 1167 1896
139 690 2659
2659 139 690
690 139 2659
2953 217 2934
2934 217 2953
217 2934 2953
2945 75 1665
1665 75 2945
75 1665 2945
711 318 531
318 531 711
531 318 711
2853 721 2299
2299 721 2853
721 2299 2853
2153 173 622
173 622 2153
622 173 2153
1740 1028 2841
1028 1740 2841
2841 1028 1740
583 1384 1578
1578 583 1384
1384 583 1578
189 1276 2504
2504 189 1276
1276 189 2504
1097 1043 1108
1108 1043 1097
1043 1097 1108
1291 1274 2282
2282 1274 1291
1274 1291 2282
1393 962 1646
1646 962 1393
962 1393 1646
341 43 2325
2325 43 341
43 341 2325
2338 114 1965
114 1965 2338
1965 114 2338
1173 290 1451
290 1173 1451
1451 290 1173
2050 1324 1938
1938 1324 2050
1324 1938 2050
1874 1343 2498
1343 1874 2498
2498 1343 1874
2284 122 2277
2277 122 2284
122 2277 2284
2633 1751 2055
2055 1751 2633
1751 2055 2633
8 1238 2738
2738 8 1238
1238 8 2738
1508 1986 2771
2771 1508 1986
1986 1508 2771
2317 472 2427
472 2317 2427
2427 472 2317
1063 2134 2603
2603 1063 2134
2134 1063 2603
1379 2162 2472
2162 1379 2472
2472 1379 2162
2882 1153 1284
1153 1284 2882
1284 1153 2882
2133 183 671
671 183 2133
183 671 2133
2606 102 1131
1131 102 2606
102 1131 2606
717 1001 2721
1001 717 2721
2721 717 1001
928 1512 1550
1550 928 1512
1512 928 1550
2764 319 432
319 432 2764
432 319 2764
2731 1746 2108
1746 2108 2731
2108 1746 2731
1376 155 1023
155 1023 1376
1023 155 1376
2963 842 1352
842 1352 2963
1352 842 2963
2584 976 1181
976 1181 2584
1181 976 2584
887 1443 1660
1660 887 1443
1443 887 1660
2612 639 2811
2811 639 2612
639 2612 2811
1124 1182 2398
1182 1124 2398
2398 1124 1182
1597 673 1490
673 1490 1597
1490 673 1597
2554 1094 2077
1094 2077 2554
2077 1094 2554
1967 572 2139
2139 572 1967
572 1967 2139
2334 1818 2517
2517 1818 2334
1818 2334 2517
1973 1018 1307
1307 1018 1973
1018 1307 1973
2123 1925 2512
1925 2123 2512
2512 1925 2123
2710 700 1233
700 1233 2710
1233 700 2710
490 2625 2799
2799 490 2625
2625 490 2799
2903 659 2774
2774 659 2903
659 2774 2903
36 393 2650
2650 36 393
393 36 2650
1969 380 2796
380 1969 2796
2796 380 1969
2171 2011 2557
2557 2011 2171
2011 2171 2557
1265 1498 2722
1498 1265 2722
2722 1265 1498
1403 442 1719
1719 442 1403
442 1403 1719
866 706 1141
1141 706 866
706 866 1141
1146 324 601
324 601 1146
601 324 1146
474 110 892
892 110 474
110 474 892
1256 128 460
460 128 1256
128 460 1256
2287 977 1603
977 1603 2287
1603 977 2287
1497 745 2088
2088 745 1497
745 1497 2088
2629 479 2040
479 2040 2629
2040 479 2629
2269 219 931
219 931 2269
931 219 2269
2339 1642 1682
1642 1682 2339
1682 1642 2339
2103 1875 2981
1875 2103 2981
2981 1875 2103
252 1259 2933
2933 252 1259
1259 252 2933
2045 834 959
959 834 2045
834 959 2045
436 1695 2711
2711 436 1695
1695 436 2711
203 980 2429
2429 203 980
980 203 2429
2437 494 655
494 655 2437
655 494 2437
1296 347 2822
347 1296 2822
2822 347 1296
1856 643 2193
2193 643 1856
643 1856 2193
2932 672 2631
672 2631 2932
2631 672 2932
1058 171 1242
1242 171 1058
171 1058 1242
1125 987 2425
2425 987 1125
987 1125 2425
577 363 1469
1469 363 577
363 577 1469
2340 949 1071
949 1071 2340
1071 949 2340
2885 2788 2940
2940 2788 2885
2788 2885 2940
833 2447 2777
2777 833 2447
2447 833 2777
538 1657 1807
1807 538 1657
1657 538 1807
2187 1997 2238
1997 2187 2238
2238 1997 2187
473 731 1439
731 473 1439
1439 473 731
1294 26 1808
26 1294 1808
1808 26 1294
231 704 1346
1346 231 704
704 231 1346
296 920 2865
2865 296 920
920 296 2865
2435 2188 2923
2923 2188 2435
2188 2435 2923
1485 772 2901
2901 772 1485
772 1485 2901
2430 390 822
390 822 2430
822 390 2430
1577 559 787
559 787 1577
787 559 1577
1069 2296 2878
2296 1069 2878
2878 1069 2296
208 227 1132
1132 208 227
227 208 1132
22 1685 1922
1922 22 1685
1685 22 1922
2599 907 1364
1364 907 2599
907 1364 2599
2145 78 2951
78 2145 2951
2951 78 2145
1673 313 1416
1416 313 1673
313 1416 1673
2419 2610 2642
2642 2419 2610
2610 2419 2642
12 657 2110
657 12 2110
2110 12 657
2320 1599 1949
1949 1599 2320
1599 1949 2320
2619 424 2544
424 2544 2619
2544 424 2619
1405 2256 2501
2256 1405 2501
2501 1405 2256
5 47 2508
2508 5 47
47 5 2508
2974 986 1717
1717 986 2974
986 1717 2974
574 683 849
849 574 683
683 574 849
2017 1136 2899
1136 2017 2899
2899 1136 2017
14 269 1796
269 14 1796
1796 14 269
867 519 1886
519 867 1886
1886 519 867
28 995 1430
995 28 1430
1430 28 995
2066 331 1881
1881 331 2066
331 1881 2066
2008 1002 1737
1737 1002 2008
1002 1737 2008
2887 898 2107
2107 898 2887
898 2107 2887
1525 571 1424
1424 571 1525
571 1424 1525
1895 1548 2156
1548 1895 2156
2156 1548 1895
2468 336 2033
336 2033 2468
2033 336 2468
786 1422 1444
1444 786 1422
1422 786 1444
732 471 1429
1429 471 732
471 732 1429
1827 282 553
282 553 1827
553 282 1827
2357 2273 2658
2658 2273 2357
2273 2357 2658
2935 1655 2757
2757 1655 2935
1655 2757 2935
239 32 115
32 115 239
115 32 239
1150 1119 1122
1122 1119 1150
1119 1122 1150
2223 262 401
401 262 2223
262 401 2223
1529 276 1983
276 1529 1983
1983 276 1529
2780 1769 2354
2354 1769 2780
1769 2354 2780
816 1661 2072
1661 816 2072
2072 816 1661
1630 249 2182
249 1630 2182
2182 249 1630
2405 1237 2506
1237 2405 2506
2506 1237 2405
2702 89 2863
89 2702 2863
2863 89 2702
2096 563 868
563 868 2096
868 563 2096
1698 2416 2857
2857 1698 2416
2416 1698 2857
500 446 2687
446 500 2687
2687 446 500
2987 40 303
40 303 2987
303 40 2987
794 2118 2789
2789 794 2118
2118 794 2789
2905 967 2316
2316 967 2905
967 2316 2905
886 872 1970
1970 872 886
872 886 1970
1570 1378 2968
1378 1570 2968
2968 1378 1570
1221 205 1412
1412 205 1221
205 1221 1412
878 443 2964
2964 443 878
443 878 2964
1166 829 1453
829 1166 1453
1453 829 1166
63 375 974
974 63 375
375 63 974
485 2104 2302
2104 485 2302
2302 485 2104
1523 1133 2144
2144 1133 1523
1133 1523 2144
1801 200 1600
200 1600 1801
1600 200 1801
167 2210 2604
2604 167 2210
2210 167 2604
2801 870 2946
870 2801 2946
2946 870 2801
523 312 2709
312 523 2709
2709 312 523
2772 738 830
830 738 2772
738 830 2772
588 1431 2880
1431 588 2880
2880 588 1431
2127 187 1621
1621 187 2127
187 1621 2127
121 136 2438
136 121 2438
2438 121 136
1474 562 1420
1420 562 1474
562 1420 1474
1824 81 2492
81 1824 2492
2492 81 1824
2645 156 2751
2751 156 2645
156 2645 2751
1369 900 2628
2628 900 1369
900 1369 2628
502 158 517
158 502 517
517 158 502
2038 1659 2514
2514 1659 2038
1659 2038 2514
1554 851 2765
2765 851 1554
851 1554 2765
1549 218 2958
2958 218 1549
218 1549 2958
2692 50 908
908 50 2692
50 908 2692
1870 729 843
729 843 1870
843 729 1870
1112 278 807
278 807 1112
807 278 1112
1339 1635 2018
2018 1339 1635
1635 1339 2018
72 24 215
215 24 72
24 72 215
1253 395 2381
395 1253 2381
2381 395 1253
434 386 978
978 386 434
386 434 978
1421 142 321
321 142 1421
142 321 1421
1460 117 2343
2343 117 1460
117 1460 2343
2737 2479 2634
2479 2634 2737
2634 2479 2737
2202 48 2216
48 2202 2216
2216 48 2202
1086 2285 2564
2285 1086 2564
2564 1086 2285
409 1468 1581
1581 409 1468
1468 409 1581
763 1913 2850
1913 763 2850
2850 763 1913
2169 261 2752
2752 261 2169
261 2169 2752
2245 1225 1990
1225 1990 2245
1990 1225 2245
2337 2706 2842
2842 2337 2706
2706 2337 2842
2410 2602 2756
2602 2410 2756
2756 2410 2602
2563 235 1158
1158 235 2563
235 1158 2563
599 615 2924
2924 599 615
615 599 2924
1367 735 2194
735 1367 2194
2194 735 1367
2595 524 2615
2615 524 2595
524 2595 2615
1950 1297 1569
1569 1297 1950
1297 1569 1950
2636 1694 2294
1694 2294 2636
2294 1694 2636
2693 814 2450
2450 814 2693
814 2450 2693
1401 1892 2609
2609 1401 1892
1892 1401 2609
1880 971 2893
971 1880 2893
2893 971 1880
1147 812 1215
1215 812 1147
812 1147 1215
560 785 2700
2700 560 785
785 560 2700
1505 87 2815
2815 87 1505
87 1505 2815
1231 242 1935
1935 242 1231
242 1231 1935
1739 1885 2451
1885 1739 2451
2451 1739 1885
2089 2059 2239
2059 2089 2239
2239 2059 2089
118 1727 2073
1727 118 2073
2073 118 1727
2079 1507 2618
1507 2079 2618
2618 1507 2079
2349 159 2960
2960 159 2349
159 2349 2960
861 237 2714
2714 237 861
237 861 2714
477 343 1066
343 477 1066
1066 343 477
2327 1530 2242
1530 2242 2327
2242 1530 2327
2626 1741 2975
2975 1741 2626
1741 2626 2975
1869 1937 2955
1937 1869 2955
2955 1869 1937
315 2272 2639
2639 315 2272
2272 315 2639
1183 1053 1910
1053 1183 1910
1910 1053 1183
1941 400 1397
400 1397 1941
1397 400 1941
452 1391 2541
1391 452 2541
2541 452 1391
1677 2053 2400
2400 1677 2053
2053 1677 2400
2719 470 2608
2608 470 2719
470 2608 2719
1037 406 2797
2797 406 1037
406 1037 2797
1104 2392 2715
2392 1104 2715
2715 1104 2392
1506 568 1331
1331 568 1506
568 1331 1506
584 1877 2571
1877 584 2571
2571 584 1877
150 1826 1911
1826 150 1911
1911 150 1826
1730 1557 2029
1557 1730 2029
2029 1557 1730
2758 1418 2389
2389 1418 2758
1418 2389 2758
2365 146 2457
2457 146 2365
146 2365 2457
2293 30 1078
30 1078 2293
1078 30 2293
2401 858 1836
858 1836 2401
1836 858 2401
2246 746 899
899 746 2246
746 899 2246
540 151 692
151 540 692
692 151 540
179 2380 2845
2845 179 2380
2380 179 2845
2006 255 1251
255 1251 2006
1251 255 2006
210 310 697
697 210 310
310 210 697
1917 238 2926
238 1917 2926
2926 238 1917
654 107 191
107 191 654
191 107 654
1188 510 1201
1201 510 1188
510 1188 1201
846 438 2900
438 846 2900
2900 438 846
1568 730 1009
730 1009 1568
1009 730 1568
1303 825 2736
825 1303 2736
2736 825 1303
607 1142 2489
1142 607 2489
2489 607 1142
733 1390 2105
1390 733 2105
2105 733 1390
2240 2313 2402
2402 2240 2313
2313 2240 2402
397 1315 2879
2879 397 1315
1315 397 2879
2830 781 877
877 781 2830
781 877 2830
245 258 1407
258 245 1407
1407 245 258
1218 1200 2530
2530 1200 1218
1200 1218 2530
2792 287 420
287 420 2792
420 287 2792
2312 668 1248
1248 668 2312
668 1248 2312
582 67 515
67 515 582
515 67 582
204 506 1675
506 204 1675
1675 204 506
2784 1211 2085
1211 2085 2784
2085 1211 2784
1509 1374 1567
1374 1509 1567
1567 1374 1509
600 399 1503
1503 399 600
399 600 1503
2331 2191 2535
2535 2191 2331
2191 2331 2535
742 651 2265
2265 651 742
651 742 2265
2062 1371 2004
2004 1371 2062
1371 2004 2062
2753 950 2270
950 2270 2753
2270 950 2753
780 504 2917
504 780 2917
2917 504 780
1090 569 2493
2493 569 1090
569 1090 2493
2068 566 2377
566 2068 2377
2377 566 2068
969 369 2201
369 969 2201
2201 369 969
2369 2458 2897
2458 2369 2897
2897 2369 2458
62 1305 2032
1305 62 2032
2032 62 1305
2121 111 2860
2860 111 2121
111 2121 2860
2464 1623 2614
1623 2464 2614
2614 1623 2464
480 328 1859
328 480 1859
1859 328 480
76 2236 2990
2990 76 2236
2236 76 2990
2047 1817 2598
1817 2047 2598
2598 1817 2047
1734 537 1755
1755 537 1734
537 1734 1755
2092 1904 2680
1904 2092 2680
2680 1904 2092
361 753 2617
2617 361 753
753 361 2617
1410 17 981
17 981 1410
981 17 1410
161 836 2445
2445 161 836
836 161 2445
1050 2099 2323
2099 1050 2323
2323 1050 2099
55 1837 2827
1837 55 2827
2827 55 1837
95 2267 2559
2267 95 2559
2559 95 2267
46 640 1902
640 46 1902
1902 46 640
392 4 1905
1905 4 392
4 392 1905
838 793 983
793 838 983
983 793 838
1828 549 1278
1278 549 1828
549 1278 1828
2009 940 1820
1820 940 2009
940 1820 2009
2120 453 1465
1465 453 2120
453 1465 2120
610 1533 2412
2412 610 1533
1533 610 2412
1857 1179 1748
1179 1748 1857
1748 1179 1857
2263 192 1700
1700 192 2263
192 1700 2263
512 1928 2862
1928 512 2862
2862 512 1928
2672 129 1389
1389 129 2672
129 1389 2672
1337 1912 2304
1912 1337 2304
2304 1337 1912
1227 1117 2434
1117 1227 2434
2434 1117 1227
580 1381 2914
2914 580 1381
1381 580 2914
831 1977 2449
1977 831 2449
2449 831 1977
564 1829 2048
1829 564 2048
2048 564 1829
788 302 1017
302 788 1017
1017 302 788
860 925 1411
925 860 1411
1411 860 925
2984 2031 2690
2031 2690 2984
2690 2031 2984
2576 1561 1765
1561 1765 2576
1765 1561 2576
1272 855 2773
2773 855 1272
855 1272 2773
644 771 1627
1627 644 771
771 644 1627
839 1332 1528
1332 839 1528
1528 839 1332
1611 1604 2249
2249 1604 1611
1604 1611 2249
1832 1402 1625
1402 1625 1832
1625 1402 1832
665 1471 2699
1471 665 2699
2699 665 1471
2686 1243 2949
1243 2686 2949
2949 1243 2686
1552 2495 2531
2495 1552 2531
2531 1552 2495
756 979 1208
1208 756 979
979 756 1208
2113 2713 2916
2916 2113 2713
2713 2113 2916
1831 101 1093
1093 101 1831
101 1093 1831
2836 514 1605
1605 514 2836
514 1605 2836
68 810 2336
810 68 2336
2336 68 810
2577 1246 2460
1246 2460 2577
2460 1246 2577
917 718 1791
718 917 1791
1791 718 917
2387 1615 2115
1615 2115 2387
2115 1615 2387
2254 2280 2560
2560 2254 2280
2280 2254 2560
2971 299 454
299 454 2971
454 299 2971
1793 2529 2803
2529 1793 2803
2803 1793 2529
883 689 1171
689 883 1171
1171 689 883
2086 1551 2360
2360 1551 2086
1551 2086 2360
2372 1462 1476
1462 1476 2372
1476 1462 2372
777 418 1952
1952 418 777
418 777 1952
1596 790 1205
1205 790 1596
790 1205 1596
930 1809 2909
2909 930 1809
1809 930 2909
1616 964 2478
2478 964 1616
964 1616 2478
2864 1302 2978
2978 1302 2864
1302 2864 2978
2186 134 1773
134 1773 2186
1773 134 2186
873 1175 2000
1175 873 2000
2000 873 1175
112 371 2214
371 112 2214
2214 112 371
234 667 947
667 234 947
947 234 667
594 306 544
306 544 594
544 306 594
1514 1026 1495
1026 1495 1514
1495 1026 1514
922 263 498
498 263 922
263 498 922
90 71 2152
71 90 2152
2152 71 90
1797 874 2915
874 1797 2915
2915 874 1797
626 2010 2471
2010 626 2471
2471 626 2010
2785 1545 1987
1545 1987 2785
1987 1545 2785
1169 193 548
193 548 1169
548 193 1169
2877 1298 1408
1298 1408 2877
1408 1298 2877
2854 1283 2884
2884 1283 2854
1283 2854 2884
268 1039 2083
2083 268 1039
1039 268 2083
2094 1196 2384
2384 1196 2094
1196 2094 2384
314 1853 2678
1853 314 2678
2678 314 1853
2806 425 894
894 425 2806
425 894 2806
1658 2413 2813
2813 1658 2413
2413 1658 2813
818 685 1669
1669 685 818
685 818 1669
1619 1061 1756
1756 1061 1619
1061 1619 1756
2674 1456 1921
1456 1921 2674
1921 1456 2674
2098 260 1163
260 1163 2098
1163 260 2098
2646 1640 2985
1640 2646 2985
2985 1640 2646
1798 2259 2474
2259 1798 2474
2474 1798 2259
992 288 1995
1995 288 992
288 992 1995
1819 752 1948
752 1819 1948
1948 752 1819
272 1909 2250
1909 272 2250
2250 272 1909
1728 691 784
784 691 1728
691 784 1728
1363 180 352
352 180 1363
180 352 1363
2399 113 773
113 773 2399
773 113 2399
1318 1241 2648
1241 1318 2648
2648 1241 1318
127 2016 2720
2720 127 2016
2016 127 2720
2869 2433 2483
2483 2433 2869
2433 2483 2869
1612 681 1176
681 1176 1612
1176 681 1612
197 283 2896
283 197 2896
2896 197 283
2581 958 2886
958 2581 2886
2886 958 2581
1415 1282 2057
1282 1415 2057
2057 1282 1415
556 489 798
489 556 798
798 489 556
1055 608 1270
1270 608 1055
608 1055 1270
1520 688 2486
688 1520 2486
2486 688 1520
206 1888 2164
1888 206 2164
2164 206 1888
541 1127 1702
1702 541 1127
1127 541 1702
1532 1106 2342
1106 1532 2342
2342 1106 1532
10 1262 2804
2804 10 1262
1262 10 2804
2116 437 1060
437 1060 2116
1060 437 2116
824 403 864
864 403 824
403 824 864
1388 1019 1351
1019 1351 1388
1351 1019 1388
1007 1976 2333
1976 1007 2333
2333 1007 1976
2895 322 1975
322 1975 2895
1975 322 2895
2137 2324 2594
2324 2137 2594
2594 2137 2324
1220 2519 2593
2593 1220 2519
2519 1220 2593
1293 1165 1984
1984 1165 1293
1165 1293 1984
1850 748 1013
748 1013 1850
1013 748 1850
2821 426 1385
426 1385 2821
1385 426 2821
1632 240 1222
1222 240 1632
240 1222 1632
35 1813 2407
2407 35 1813
1813 35 2407
1622 1539 2183
2183 1539 1622
1539 1622 2183
1068 1194 2734
2734 1068 1194
1194 1068 2734
1860 827 1161
827 1161 1860
1161 827 1860
1312 417 440
440 417 1312
417 440 1312
1340 83 2230
2230 83 1340
83 1340 2230
2921 857 2469
2469 857 2921
857 2469 2921
2452 448 2292
2292 448 2452
448 2292 2452
1467 663 2513
663 1467 2513
2513 663 1467
1198 214 2510
2510 214 1198
214 1198 2510
330 177 451
451 177 330
177 330 451
2446 449 2671
2671 449 2446
449 2446 2671
2972 492 1779
492 1779 2972
1779 492 2972
2800 634 2301
2301 634 2800
634 2301 2800
291 606 1064
606 291 1064
1064 291 606
576 1045 2578
1045 576 2578
2578 576 1045
1021 300 1947
1947 300 1021
300 1021 1947
1168 929 1718
1718 929 1168
929 1168 1718
2408 462 2522
2522 462 2408
462 2408 2522
648 195 2892
2892 195 648
195 648 2892
2415 56 2030
2030 56 2415
56 2030 2415
650 1210 2204
1210 650 2204
2204 650 1210
1362 2093 2247
2247 1362 2093
2093 1362 2247
2473 1062 2894
2894 1062 2473
1062 2473 2894
130 388 1585
1585 130 388
388 130 1585
1496 927 2070
927 1496 2070
2070 927 1496
2778 722 1991
1991 722 2778
722 1991 2778
2131 1425 2546
2546 1425 2131
1425 2131 2546
1264 1040 1879
1879 1040 1264
1040 1264 1879
1214 34 2102
2102 34 1214
34 1214 2102
1562 1766 2730
2730 1562 1766
1766 1562 2730
2670 1833 2831
1833 2670 2831
2831 1833 2670
2054 2197 2994
2994 2054 2197
2197 2054 2994
2918 308 2291
2291 308 2918
308 2291 2918
1020 259 2168
259 1020 2168
2168 259 1020
429 1235 1629
1235 429 1629
1629 429 1235
2386 1121 2001
1121 2001 2386
2001 1121 2386
39 543 1287
543 39 1287
1287 39 543
2988 552 1149
1149 552 2988
552 1149 2988
856 411 2534
411 856 2534
2534 411 856
765 1314 1524
1314 765 1524
1524 765 1314
1743 164 1887
1887 164 1743
164 1743 1887
2657 1269 2807
2807 1269 2657
1269 2657 2807
2174 1493 2453
2453 1493 2174
1493 2174 2453
1558 909 1771
909 1558 1771
1771 909 1558
2641 901 1591
1591 901 2641
901 1591 2641
770 1560 1989
1989 770 1560
1560 770 1989
1452 144 1120
144 1120 1452
1120 144 1452
1030 1014 1128
1128 1014 1030
1014 1030 1128
1872 138 2136
2136 138 1872
138 1872 2136
1140 796 2165
796 1140 2165
2165 796 1140
1845 1152 1327
1152 1327 1845
1327 1152 1845
1077 695 2198
695 1077 2198
2198 695 1077
382 882 2735
2735 382 882
882 382 2735
166 152 508
508 152 166
152 166 508
1361 596 1170
1170 596 1361
596 1170 1361
1958 696 888
696 888 1958
888 696 1958
2607 459 914
459 914 2607
914 459 2607
2065 364 2288
2288 364 2065
364 2065 2288
2979 351 1707
1707 351 2979
351 1707 2979
1634 1750 2418
2418 1634 1750
1750 1634 2418
1195 946 2112
2112 946 1195
946 1195 2112
609 605 2849
2849 605 609
605 609 2849
921 693 1083
693 921 1083
1083 693 921
153 1957 2794
2794 153 1957
1957 153 2794
2867 1126 2716
2716 1126 2867
1126 2716 2867
1313 450 835
835 450 1313
450 835 1313
1082 595 2394
2394 595 1082
595 1082 2394
2746 1455 1652
1455 1652 2746
1652 1455 2746
2362 1510 2755
2755 1510 2362
1510 2362 2755
381 1492 2190
1492 381 2190
2190 381 1492
2060 298 2026
2026 298 2060
298 2026 2060
384 54 1395
1395 54 384
54 384 1395
2871 1461 2151
2151 1461 2871
1461 2151 2871
105 359 1099
359 105 1099
1099 105 359
2049 1383 1427
1427 1383 2049
1383 1427 2049
737 360 1518
360 737 1518
1518 360 737
1519 1010 2726
1010 1519 2726
2726 1010 1519
2545 275 1102
1102 275 2545
275 1102 2545
2944 507 871
871 507 2944
507 871 2944
2406 2480 2491
2480 2406 2491
2491 2406 2480
126 1382 2632
2632 126 1382
1382 126 2632
809 616 2858
616 809 2858
2858 616 809
2237 465 897
897 465 2237
465 897 2237
2344 463 2570
463 2344 2570
2570 463 2344
1866 1749 2669
1749 1866 2669
2669 1749 1866
956 488 2859
2859 488 956
488 956 2859
2684 1059 2081
1059 2081 2684
2081 1059 2684
73 713 1583
713 73 1583
1583 73 713
1834 963 1232
1232 963 1834
963 1232 1834
172 373 728
373 172 728
728 172 373
2551 1897 2727
2727 1897 2551
1897 2551 2727
1574 532 764
764 532 1574
532 764 1574
501 365 2396
2396 365 501
365 501 2396
1445 1459 2122
1459 1445 2122
2122 1445 1459
416 1065 1961
1065 416 1961
1961 416 1065
2872 209 1345
1345 209 2872
209 1345 2872
945 1607 2502
2502 945 1607
1607 945 2502
2172 1538 1920
1538 1920 2172
1920 1538 2172
701 955 1670
1670 701 955
955 701 1670
2391 664 1762
664 1762 2391
1762 664 2391
1209 31 686
31 686 1209
686 31 1209
1051 766 916
916 766 1051
766 916 1051
885 124 682
124 682 885
682 124 885
2925 1894 2938
1894 2925 2938
2938 1894 2925
1945 1893 1940
1940 1893 1945
1893 1940 1945
2600 1025 2847
2847 1025 2600
1025 2600 2847
1686 2221 2939
2939 1686 2221
2221 1686 2939
2496 1130 1864
1130 1864 2496
1864 1130 2496
799 1753 2930
2930 799 1753
1753 799 2930
1815 2656 2881
2656 1815 2881
2881 1815 2656
2444 1191 1618
1191 1618 2444
1618 1191 2444
2490 1531 2067
2067 1531 2490
1531 2067 2490
714 534 1777
1777 534 714
534 714 1777
2382 225 1267
225 1267 2382
1267 225 2382
1982 546 850
850 546 1982
546 850 1982
1761 1027 2440
1027 1761 2440
2440 1027 1761
1145 66 2969
2969 66 1145
66 1145 2969
1847 456 2257
2257 456 1847
456 1847 2257
2808 2218 2329
2329 2218 2808
2218 2329 2808
2126 941 1714
1714 941 2126
941 1714 2126
88 1883 2003
1883 88 2003
2003 88 1883
1144 1806 2759
2759 1144 1806
1806 1144 2759
740 951 2015
2015 740 951
951 740 2015
1535 325 2335
2335 325 1535
325 1535 2335
266 1392 2943
1392 266 2943
2943 266 1392
2643 178 1488
178 1488 2643
1488 178 2643
1953 1252 1366
1252 1366 1953
1366 1252 1953
2874 521 1396
1396 521 2874
521 1396 2874
25 1664 1891
1891 25 1664
1664 25 1891
52 1729 2303
2303 52 1729
1729 52 2303
2725 202 2306
2306 202 2725
202 2306 2725
2910 709 2802
709 2802 2910
2802 709 2910
1547 311 2575
2575 311 1547
311 1547 2575
92 1927 2640
2640 92 1927
1927 92 2640
516 1651 1810
1810 516 1651
1651 516 1810
1116 942 2635
2635 942 1116
942 1116 2635
536 60 3000
60 536 3000
3000 60 536
2613 2140 2252
2140 2252 2613
2252 2140 2613
1724 1029 2913
1029 1724 2913
2913 1029 1724
703 2012 2739
2739 703 2012
2012 703 2739
2828 954 2056
954 2056 2828
2056 954 2828
2061 307 1199
307 1199 2061
1199 307 2061
2142 1413 1571
1413 1571 2142
1571 1413 2142
1936 627 1047
1047 627 1936
627 1047 1936
1103 1135 1692
1692 1103 1135
1135 1103 1692
2189 1280 2829
1280 2189 2829
2829 1280 2189
1096 918 1334
918 1096 1334
1334 918 1096
2816 435 2683
435 2683 2816
2683 435 2816
1588 135 1544
1544 135 1588
135 1544 1588
2226 292 561
292 561 2226
561 292 2226
2019 481 2798
2798 481 2019
481 2019 2798
277 1763 2728
1763 277 2728
2728 277 1763
811 198 529
529 198 811
198 529 811
778 944 2397
2397 778 944
944 778 2397
2232 1716 2967
1716 2232 2967
2967 1716 2232
1606 687 1483
1483 687 1606
687 1483 1606
190 2358 2373
2373 190 2358
2358 190 2373
2668 535 1333
535 1333 2668
1333 535 2668
2051 496 2840
2840 496 2051
496 2051 2840
2708 1679 1735
1679 1735 2708
1735 1679 2708
41 994 1310
994 41 1310
1310 41 994
1723 188 1906
188 1723 1906
1906 188 1723
2043 620 2782
2782 620 2043
620 2043 2782
2868 2129 2150
2129 2150 2868
2150 2129 2868
1073 645 1631
1631 645 1073
645 1073 1631
1587 345 1502
1502 345 1587
345 1502 1587
1226 924 1457
924 1226 1457
1457 924 1226
253 175 317
317 175 253
175 253 317
1589 154 2814
154 1589 2814
2814 154 1589
297 2308 2538
2538 297 2308
2308 297 2538
2411 1250 2467
2467 1250 2411
1250 2411 2467
2130 1985 2148
2148 1985 2130
1985 2130 2148
1867 1776 2876
1776 1867 2876
2876 1776 1867
2364 769 1536
769 1536 2364
1536 769 2364
1608 2125 2698
2698 1608 2125
2125 1608 2698
1044 705 1189
1189 705 1044
705 1044 1189
1076 803 1844
1844 803 1076
803 1076 1844
2500 1601 2817
2817 1601 2500
1601 2500 2817
1289 988 1778
1778 988 1289
988 1289 1778
923 797 2824
797 923 2824
2824 797 923
2071 1164 1279
1164 1279 2071
1279 1164 2071
2651 1186 2688
1186 2651 2688
2688 1186 2651
469 1795 1855
1855 469 1795
1795 469 1855
94 61 1620
61 94 1620
1620 61 94
1084 975 2235
975 1084 2235
2235 975 1084
2832 335 775
335 775 2832
775 335 2832
1656 350 2274
350 1656 2274
2274 350 1656
1643 573 1254
1254 573 1643
573 1254 1643
2368 806 1775
1775 806 2368
806 1775 2368
2366 802 2942
2942 802 2366
802 2366 2942
1070 383 1998
383 1070 1998
1998 383 1070
1022 1095 1868
1868 1022 1095
1095 1022 1868
890 863 1988
1988 863 890
863 890 1988
2262 1202 2439
1202 2262 2439
2439 1202 2262
2488 1929 2307
1929 2307 2488
2307 1929 2488
2733 1942 2258
2258 1942 2733
1942 2258 2733
2590 1852 2873
1852 2590 2873
2873 1852 2590
2763 1732 1865
1732 1865 2763
1865 1732 2763
768 1373 1486
1486 768 1373
1373 768 1486
902 125 660
125 660 902
660 125 902
624 274 1178
274 624 1178
1178 274 624
1899 736 2138
2138 736 1899
736 1899 2138
497 511 1576
511 497 1576
1576 497 511
2965 285 1087
1087 285 2965
285 1087 2965
677 528 1564
1564 528 677
528 677 1564
182 792 1487
792 182 1487
1487 182 792
2695 895 1667
895 1667 2695
1667 895 2695
1974 539 2956
539 1974 2956
2956 539 1974
509 669 847
847 509 669
669 509 847
505 186 2666
2666 186 505
186 505 2666
1353 724 774
724 774 1353
774 724 1353
422 716 741
741 422 716
716 422 741
1688 984 2180
984 1688 2180
2180 984 1688
484 304 1481
1481 304 484
304 484 1481
415 591 1042
591 415 1042
1042 415 591
2005 405 2271
405 2005 2271
2271 405 2005
1357 295 1980
295 1357 1980
1980 295 1357
1245 1234 1610
1234 1245 1610
1610 1234 1245
2212 100 957
100 957 2212
957 100 2212
804 305 1962
305 804 1962
1962 305 804
332 165 2082
165 332 2082
2082 165 332
1873 38 246
38 246 1873
246 38 1873
412 579 2321
2321 412 579
579 412 2321
661 141 1697
1697 141 661
141 661 1697
1273 254 1923
1923 254 1273
254 1273 1923
913 229 1478
229 913 1478
1478 229 913
1704 1341 2833
2833 1341 1704
1341 1704 2833
57 1016 2184
2184 57 1016
1016 57 2184
199 782 985
985 199 782
782 199 985
1406 1712 2950
1712 1406 2950
2950 1406 1712
2064 2902 2966
2966 2064 2902
2902 2064 2966
224 1236 1458
1458 224 1236
1236 224 1458
2376 1328 2673
2673 1328 2376
1328 2376 2673
557 612 1764
1764 557 612
612 557 1764
2466 457 1036
1036 457 2466
457 1036 2466
2919 334 1802
1802 334 2919
334 1802 2919
464 1177 2524
2524 464 1177
1177 464 2524
1668 2579 2663
2579 1668 2663
2663 1668 2579
1559 329 1091
329 1091 1559
1091 329 1559
2846 441 486
441 486 2846
486 441 2846
837 739 2586
739 837 2586
2586 739 837
468 220 757
220 468 757
757 220 468
2861 679 1033
679 1033 2861
1033 679 2861
1398 791 2920
2920 791 1398
791 1398 2920
1399 2207 2224
2207 1399 2224
2224 1399 2207
1522 1884 1966
1884 1522 1966
1966 1522 1884
2922 1370 2870
1370 2870 2922
2870 1370 2922
614 2655 2745
2745 614 2655
2655 614 2745
385 355 2637
2637 355 385
355 385 2637
2521 1854 2701
1854 2521 2701
2701 1854 2521
1960 433 680
433 680 1960
680 433 1960
590 476 1228
476 590 1228
1228 476 590
1926 821 1951
821 1926 1951
1951 821 1926
2484 2111 2834
2834 2111 2484
2111 2484 2834
2348 1541 1650
1650 1541 2348
1541 1650 2348
2002 1286 2052
2052 1286 2002
1286 2002 2052
2749 1784 1907
1784 1907 2749
1907 1784 2749
1012 751 2013
751 1012 2013
2013 751 1012
58 1255 2547
2547 58 1255
1255 58 2547
2443 1156 1918
1918 1156 2443
1156 1918 2443
2375 1101 2520
1101 2375 2520
2520 1101 2375
157 2036 2781
2781 157 2036
2036 157 2781
1309 1110 2664
1110 1309 2664
2664 1110 1309
1193 340 2251
340 1193 2251
2251 340 1193
228 491 1515
491 228 1515
1515 228 491
2889 264 2589
2589 264 2889
264 2589 2889
2436 11 256
11 256 2436
256 11 2436
431 42 2532
2532 42 431
42 431 2532
554 348 1123
1123 348 554
348 554 1123
2206 338 1932
338 1932 2206
1932 338 2206
619 1134 2661
2661 619 1134
1134 619 2661
2732 2459 2627
2459 2627 2732
2627 2459 2732
9 1326 2170
2170 9 1326
1326 9 2170
2087 201 2196
201 2087 2196
2196 201 2087
2200 966 2417
966 2200 2417
2417 966 2200
2219 2426 2927
2927 2219 2426
2426 2219 2927
119 1708 1842
1842 119 1708
1708 119 1842
1263 21 1999
21 1263 1999
1999 21 1263
2166 1107 2024
2024 1107 2166
1107 2024 2166
447 2095 2231
2095 447 2231
2231 447 2095
372 598 2314
598 372 2314
2314 372 598
499 64 617
64 499 617
617 64 499
168 1839 2409
2409 168 1839
1839 168 2409
789 337 1446
1446 337 789
337 789 1446
2649 530 1908
530 1908 2649
1908 530 2649
1048 1639 2904
1639 1048 2904
2904 1048 1639
2158 1190 2462
2462 1190 2158
1190 2158 2462
2356 109 1217
109 1217 2356
1217 109 2356
1129 991 1914
991 1129 1914
1914 991 1129
2037 1747 2704
1747 2037 2704
2704 1747 2037
1593 1295 2141
1295 1593 2141
2141 1295 1593
2908 184 241
184 241 2908
241 184 2908
93 1409 2622
2622 93 1409
1409 93 2622
2888 294 1786
1786 294 2888
294 1786 2888
2583 820 1715
820 1715 2583
1715 820 2583
631 1484 2775
2775 631 1484
1484 631 2775
2891 1537 2543
2543 1537 2891
1537 2543 2891
2441 662 2199
2199 662 2441
662 2199 2441
2556 1526 1882
1882 1526 2556
1526 1882 2556
19 1553 2101
2101 19 1553
1553 19 2101
547 982 1426
982 547 1426
1426 547 982
1636 726 1321
726 1321 1636
1321 726 1636
943 575 2819
2819 575 943
575 943 2819
1614 2647 2779
2647 1614 2779
2779 1614 2647
1780 251 1174
251 1174 1780
1174 251 1780
2996 1647 1871
1647 1871 2996
1871 1647 2996
2014 876 2341
876 2014 2341
2341 876 2014
1329 163 1154
1154 163 1329
163 1154 1329
2638 527 2558
527 2558 2638
2558 527 2638
2505 1299 1706
1299 1706 2505
1706 1299 2505
170 427 2097
2097 170 427
427 170 2097
666 1400 2533
2533 666 1400
1400 666 2533
29 349 2027
349 29 2027
2027 29 349
1799 85 776
85 776 1799
776 85 1799
1489 1513 1843
1513 1489 1843
1843 1489 1513
1946 1319 1713
1713 1319 1946
1319 1713 1946
396 374 611
374 396 611
611 374 396
2783 698 1638
1638 698 2783
698 1638 2783
993 2243 2718
2718 993 2243
2243 993 2718
77 1654 1676
1654 77 1676
1676 77 1654
2378 1437 2523
2523 1437 2378
1437 2378 2523
2428 1380 2761
1380 2428 2761
2761 1380 2428
2290 1085 2297
1085 2290 2297
2297 1085 2290
2220 1138 2825
2825 1138 2220
1138 2220 2825
2724 461 823
823 461 2724
461 823 2724
2605 869 2035
2035 869 2605
869 2035 2605
2298 1056 1316
1316 1056 2298
1056 1316 2298
1919 859 2374
2374 859 1919
859 1919 2374
2147 844 2961
2961 844 2147
844 2147 2961
2883 896 1414
1414 896 2883
896 1414 2883
1794 423 1386
423 1386 1794
1386 423 1794
1368 1789 2461
1789 1368 2461
2461 1368 1789
59 2253 2515
2253 59 2515
2515 59 2253
948 267 2601
267 948 2601
2601 267 948
647 1785 1972
1972 647 1785
1785 647 1972
1054 891 1419
1419 891 1054
891 1054 1419
2359 819 932
932 819 2359
819 932 2359
