27 15 28
28 15 27
15 27 28
26 1 21
21 1 26
1 21 26
20 5 14
14 5 20
5 14 20
4 6 17
6 4 17
17 4 6
7 2 12
12 2 7
2 7 12
23 13 18
13 18 23
18 13 23
30 11 29
11 29 30
29 11 30
9 3 19
19 3 9
3 9 19
16 10 24
10 16 24
24 10 16
22 8 25
8 22 25
25 8 22
