431 553 753
753 431 553
553 431 753
237 808 1060
1060 237 808
808 237 1060
1300 72 602
72 602 1300
602 72 1300
846 916 1311
916 846 1311
1311 846 916
299 500 1447
500 299 1447
1447 299 500
290 561 1016
561 290 1016
1016 290 561
91 117 1127
1127 91 117
117 91 1127
535 768 1245
768 535 1245
1245 535 768
1383 294 424
424 294 1383
294 424 1383
681 518 1283
518 681 1283
1283 518 681
87 133 1014
1014 87 133
133 87 1014
1397 1258 1287
1258 1287 1397
1287 1258 1397
1188 68 226
226 68 1188
68 226 1188
1189 459 852
459 852 1189
852 459 1189
1425 60 456
60 456 1425
456 60 1425
644 145 555
145 555 644
555 145 644
212 160 309
309 160 212
160 212 309
183 132 1308
132 183 1308
1308 132 183
1463 243 461
243 461 1463
461 243 1463
54 623 1448
1448 54 623
623 54 1448
909 1024 1307
1024 909 1307
1307 909 1024
661 892 1238
1238 661 892
892 661 1238
1226 127 549
127 549 1226
549 127 1226
1161 470 1106
1106 470 1161
470 1106 1161
1103 656 678
678 656 1103
656 678 1103
1446 921 1430
921 1430 1446
1430 921 1446
153 507 1037
507 153 1037
1037 153 507
795 528 607
607 528 795
528 607 795
888 898 1350
1350 888 898
898 888 1350
125 867 1104
1104 125 867
867 125 1104
729 37 1321
1321 37 729
37 729 1321
1264 268 1498
1498 268 1264
268 1264 1498
1145 281 1208
1208 281 1145
281 1145 1208
949 244 296
244 296 949
296 244 949
1469 275 475
475 275 1469
275 475 1469
455 379 923
379 455 923
923 379 455
1201 215 1084
215 1084 1201
1084 215 1201
913 124 845
124 845 913
845 124 913
1030 1066 1315
1066 1030 1315
1315 1030 1066
144 957 1392
957 144 1392
1392 144 957
628 847 1492
1492 628 847
847 628 1492
885 826 1126
826 885 1126
1126 826 885
1319 582 1459
582 1319 1459
1459 582 1319
786 188 724
724 188 786
188 724 786
261 552 1334
1334 261 552
552 261 1334
102 98 311
98 102 311
311 98 102
1002 97 1347
1347 97 1002
97 1002 1347
1026 11 355
355 11 1026
11 355 1026
1342 205 919
205 919 1342
919 205 1342
631 718 856
718 631 856
856 631 718
176 347 489
489 176 347
347 176 489
190 178 770
770 178 190
178 190 770
864 192 376
376 192 864
192 376 864
534 1155 1483
1155 534 1483
1483 534 1155
1345 788 1170
1170 788 1345
788 1170 1345
1289 688 1132
688 1132 1289
1132 688 1289
1230 1210 1228
1228 1210 1230
1210 1228 1230
1202 269 567
567 269 1202
269 567 1202
650 1355 1414
1355 650 1414
1414 650 1355
970 485 1144
1144 485 970
485 970 1144
1172 161 421
421 161 1172
161 421 1172
679 217 1020
1020 217 679
217 679 1020
343 423 836
836 343 423
423 343 836
548 1118 1306
1118 548 1306
1306 548 1118
167 228 483
228 167 483
483 167 228
595 844 1344
1344 595 844
844 595 1344
4 504 994
504 4 994
994 4 504
806 588 1091
588 806 1091
1091 588 806
584 760 955
760 584 955
955 584 760
211 1046 1390
1390 211 1046
1046 211 1390
828 710 1156
710 828 1156
1156 710 828
964 247 1199
247 964 1199
1199 247 964
789 6 1401
1401 6 789
6 789 1401
136 114 1042
1042 114 136
114 136 1042
1309 7 1234
1234 7 1309
7 1234 1309
990 640 1196
640 990 1196
1196 640 990
1151 300 772
300 772 1151
772 300 1151
427 839 1452
839 427 1452
1452 427 839
1095 289 464
464 289 1095
289 464 1095
1250 966 1274
1274 966 1250
966 1250 1274
633 1006 1263
1006 633 1263
1263 633 1006
304 74 1292
1292 74 304
74 304 1292
577 181 264
181 264 577
264 181 577
321 682 930
930 321 682
682 321 930
812 569 1064
1064 569 812
569 812 1064
1217 497 1148
1148 497 1217
497 1148 1217
1497 232 709
709 232 1497
232 709 1497
859 790 1493
1493 790 859
790 859 1493
580 604 1246
604 580 1246
1246 580 604
143 307 332
332 143 307
307 143 332
527 1191 1229
1191 527 1229
1229 527 1191
440 501 739
501 440 739
739 440 501
248 284 377
377 248 284
284 248 377
1025 151 893
893 151 1025
151 893 1025
1236 950 1028
1028 950 1236
950 1028 1236
418 272 1239
272 418 1239
1239 272 418
1266 404 436
404 436 1266
436 404 1266
1052 253 1198
253 1052 1198
1198 253 1052
351 959 1488
959 351 1488
1488 351 959
1012 676 774
774 676 1012
676 774 1012
660 474 1222
474 660 1222
1222 474 660
794 274 1053
1053 274 794
274 794 1053
800 1111 1150
1150 800 1111
1111 800 1150
513 327 625
327 513 625
625 327 513
747 1176 1215
1215 747 1176
1176 747 1215
350 732 1177
732 350 1177
1177 350 732
1093 93 855
855 93 1093
93 855 1093
611 229 1363
1363 229 611
229 611 1363
207 271 851
271 207 851
851 207 271
361 639 1395
639 361 1395
1395 361 639
308 1085 1453
1453 308 1085
1085 308 1453
1143 472 1305
472 1143 1305
1305 472 1143
265 450 884
884 265 450
450 265 884
914 958 1450
1450 914 958
958 914 1450
1252 1216 1277
1216 1252 1277
1277 1216 1252
522 260 1481
260 522 1481
1481 260 522
428 972 1442
1442 428 972
972 428 1442
1133 331 371
371 331 1133
331 371 1133
1424 31 172
172 31 1424
31 172 1424
432 1211 1275
1211 432 1275
1275 432 1211
224 445 1494
1494 224 445
445 224 1494
533 44 1472
44 533 1472
1472 44 533
896 606 875
606 875 896
875 606 896
515 591 684
684 515 591
591 515 684
779 860 1204
1204 779 860
860 779 1204
249 824 902
902 249 824
824 249 902
1379 286 1476
1476 286 1379
286 1379 1476
700 141 1487
141 700 1487
1487 141 700
1152 339 741
741 339 1152
339 741 1152
722 704 1394
1394 704 722
704 722 1394
366 129 804
804 129 366
129 366 804
690 142 1021
142 690 1021
1021 142 690
496 1056 1247
1247 496 1056
1056 496 1247
171 725 1068
725 171 1068
1068 171 725
1043 1089 1220
1220 1043 1089
1089 1043 1220
608 166 1269
166 608 1269
1269 166 608
488 33 463
33 463 488
463 33 488
1017 150 849
849 150 1017
150 849 1017
673 179 1473
1473 179 673
179 673 1473
1407 53 730
53 730 1407
730 53 1407
1166 113 149
113 149 1166
149 113 1166
1410 443 1075
1075 443 1410
443 1075 1410
139 89 624
89 139 624
624 89 139
305 671 1324
671 305 1324
1324 305 671
381 843 1313
843 381 1313
1313 381 843
556 954 1147
954 556 1147
1147 556 954
841 370 881
370 841 881
881 370 841
620 1169 1437
1437 620 1169
1169 620 1437
754 692 853
692 754 853
853 692 754
756 110 917
917 110 756
110 756 917
576 652 782
652 576 782
782 576 652
442 58 1139
1139 58 442
58 442 1139
1019 17 908
908 17 1019
17 908 1019
180 1116 1257
1116 180 1257
1257 180 1116
198 367 1408
367 198 1408
1408 198 367
319 653 906
906 319 653
653 319 906
295 820 1486
820 295 1486
1486 295 820
1237 69 1149
1149 69 1237
69 1149 1237
648 121 1369
121 648 1369
1369 121 648
929 168 696
696 168 929
168 696 929
1221 429 1023
429 1023 1221
1023 429 1221
945 1314 1409
1314 945 1409
1409 945 1314
111 157 874
157 111 874
874 111 157
56 1214 1500
1500 56 1214
1214 56 1500
878 872 1282
1282 872 878
872 878 1282
1415 542 759
542 759 1415
759 542 1415
981 818 1411
818 981 1411
1411 818 981
713 726 1351
1351 713 726
726 713 1351
1182 12 109
109 12 1182
12 109 1182
90 526 1458
1458 90 526
526 90 1458
924 925 1387
925 924 1387
1387 924 925
349 356 1207
356 349 1207
1207 349 356
642 116 854
116 642 854
854 116 642
437 1317 1468
1468 437 1317
1317 437 1468
123 816 1370
1370 123 816
816 123 1370
257 235 315
315 235 257
235 257 315
922 822 1029
1029 822 922
822 922 1029
1185 1259 1378
1378 1185 1259
1259 1185 1378
236 85 1092
1092 85 236
85 236 1092
622 570 1361
570 622 1361
1361 570 622
380 467 1039
1039 380 467
467 380 1039
1353 73 1048
73 1048 1353
1048 73 1353
103 1438 1484
1484 103 1438
1438 103 1484
24 873 1045
873 24 1045
1045 24 873
1040 417 910
910 417 1040
417 910 1040
617 105 769
105 617 769
769 105 617
629 668 1099
668 629 1099
1099 629 668
936 401 1240
401 936 1240
1240 401 936
403 206 334
206 334 403
334 206 403
1372 748 934
748 934 1372
934 748 1372
554 108 425
425 108 554
108 425 554
858 589 1009
589 858 1009
1009 589 858
503 27 1183
27 503 1183
1183 27 503
1180 811 1031
811 1031 1180
1031 811 1180
197 658 1299
1299 197 658
658 197 1299
1478 70 900
70 900 1478
900 70 1478
1212 95 1413
95 1212 1413
1413 95 1212
1083 357 1112
1112 357 1083
357 1083 1112
495 45 636
45 495 636
636 45 495
80 842 1072
1072 80 842
842 80 1072
263 280 510
510 263 280
280 263 510
1086 341 701
341 701 1086
701 341 1086
545 1022 1050
1022 545 1050
1050 545 1022
1338 641 938
938 641 1338
641 938 1338
829 216 231
231 216 829
216 231 829
904 1142 1295
1142 904 1295
1295 904 1142
1348 1423 1499
1499 1348 1423
1423 1348 1499
3 78 1352
78 3 1352
1352 3 78
1278 887 926
926 887 1278
887 926 1278
1205 659 1329
1329 659 1205
659 1205 1329
508 359 744
744 359 508
359 508 744
575 662 742
662 575 742
742 575 662
1071 14 951
14 951 1071
951 14 1071
1456 134 960
134 960 1456
960 134 1456
715 1124 1200
1200 715 1124
1124 715 1200
571 1117 1322
1322 571 1117
1117 571 1322
983 346 1280
1280 346 983
346 983 1280
621 798 1380
798 621 1380
1380 621 798
477 433 942
942 433 477
433 477 942
104 716 1406
716 104 1406
1406 104 716
799 727 1000
727 799 1000
1000 727 799
466 666 717
717 466 666
666 466 717
712 314 605
314 605 712
605 314 712
426 439 825
825 426 439
439 426 825
750 473 1302
473 750 1302
1302 473 750
468 20 1388
20 468 1388
1388 20 468
1168 42 1286
1286 42 1168
42 1168 1286
460 762 1404
1404 460 762
762 460 1404
22 400 787
787 22 400
400 22 787
227 927 932
932 227 927
927 227 932
1475 82 736
82 736 1475
736 82 1475
410 137 646
137 410 646
646 137 410
32 337 1294
337 32 1294
1294 32 337
1224 745 1059
745 1059 1224
1059 745 1224
1178 1301 1421
1301 1178 1421
1421 1178 1301
723 173 735
735 173 723
173 723 735
1115 77 292
292 77 1115
77 292 1115
390 1125 1173
1173 390 1125
1125 390 1173
734 1439 1449
1449 734 1439
1439 734 1449
106 326 1276
326 106 1276
1276 106 326
482 363 674
363 482 674
674 363 482
238 99 164
99 164 238
164 99 238
1057 471 547
547 471 1057
471 547 1057
796 987 1333
987 796 1333
1333 796 987
394 509 541
509 394 541
541 394 509
191 721 976
721 191 976
976 191 721
1293 204 1371
1371 204 1293
204 1293 1371
364 869 1123
869 364 1123
1123 364 869
282 382 1296
1296 282 382
382 282 1296
310 651 821
821 310 651
651 310 821
1398 667 897
897 667 1398
667 897 1398
5 1122 1427
1427 5 1122
1122 5 1427
1105 233 340
340 233 1105
233 340 1105
1341 1248 1325
1248 1325 1341
1325 1248 1341
1256 131 270
270 131 1256
131 270 1256
278 1044 1451
1044 278 1451
1451 278 1044
15 1005 1480
1005 15 1480
1480 15 1005
48 416 1384
1384 48 416
416 48 1384
1399 1251 1461
1461 1251 1399
1251 1399 1461
1003 336 801
336 801 1003
801 336 1003
476 654 968
968 476 654
654 476 968
1331 784 1261
784 1261 1331
1261 784 1331
438 34 55
34 55 438
55 34 438
1073 218 1120
218 1073 1120
1120 218 1073
899 803 1368
1368 803 899
803 899 1368
1290 486 1033
486 1033 1290
1033 486 1290
479 538 985
985 479 538
538 479 985
285 9 1485
9 285 1485
1485 9 285
560 441 1418
1418 441 560
441 560 1418
1171 147 1432
147 1171 1432
1432 147 1171
833 1271 1336
1336 833 1271
1271 833 1336
1393 201 255
255 201 1393
201 255 1393
38 420 1349
420 38 1349
1349 38 420
755 23 752
752 23 755
23 752 755
708 393 1457
393 708 1457
1457 393 708
1402 52 1260
52 1260 1402
1260 52 1402
627 448 1318
448 627 1318
1318 448 627
170 635 791
791 170 635
635 170 791
1163 273 574
574 273 1163
273 574 1163
1462 252 1377
252 1377 1462
1377 252 1462
568 550 693
693 550 568
550 568 693
540 481 947
481 540 947
947 481 540
918 840 1065
1065 840 918
840 918 1065
720 155 1441
1441 155 720
155 720 1441
1232 1 258
258 1 1232
1 258 1232
1034 707 1035
1035 707 1034
707 1034 1035
669 209 632
209 632 669
632 209 669
1077 200 792
200 792 1077
792 200 1077
1140 953 982
982 953 1140
953 982 1140
35 637 815
815 35 637
637 35 815
610 997 1273
997 610 1273
1273 610 997
396 92 1312
1312 92 396
92 396 1312
1058 761 1396
1396 761 1058
761 1058 1396
1160 1167 1367
1167 1160 1367
1367 1160 1167
1412 13 564
13 564 1412
564 13 1412
1297 298 694
298 694 1297
694 298 1297
783 563 781
781 563 783
563 781 783
1364 566 863
566 863 1364
863 566 1364
25 523 940
940 25 523
523 25 940
809 40 1470
40 809 1470
1470 40 809
1015 120 411
411 120 1015
120 411 1015
19 539 683
683 19 539
539 19 683
1186 664 1121
1121 664 1186
664 1121 1186
1078 159 647
647 159 1078
159 647 1078
1157 832 1358
832 1157 1358
1358 832 1157
581 177 519
519 177 581
177 519 581
1197 487 524
524 487 1197
487 524 1197
1477 154 1381
154 1381 1477
1381 154 1477
697 397 1373
397 697 1373
1373 397 697
1386 494 511
494 511 1386
511 494 1386
1192 313 1243
1243 313 1192
313 1192 1243
412 251 1054
251 412 1054
1054 251 412
1435 225 1174
225 1174 1435
1174 225 1435
699 691 831
691 699 831
831 691 699
835 1403 1428
1428 835 1403
1403 835 1428
484 516 802
516 484 802
802 484 516
868 594 1431
1431 594 868
594 868 1431
1158 702 1038
702 1038 1158
1038 702 1158
353 57 933
57 353 933
933 57 353
505 256 587
587 256 505
256 505 587
993 30 1061
30 993 1061
1061 30 993
1218 961 1429
1429 961 1218
961 1218 1429
544 46 434
434 46 544
46 434 544
158 222 1070
222 158 1070
1070 158 222
915 2 162
2 162 915
162 2 915
1013 615 1087
615 1013 1087
1087 615 1013
1184 521 965
521 965 1184
965 521 1184
1008 373 492
492 373 1008
373 492 1008
593 453 1206
453 593 1206
1206 453 593
107 586 655
586 107 655
655 107 586
388 174 883
883 174 388
174 388 883
254 793 956
793 254 956
956 254 793
112 345 1102
1102 112 345
345 112 1102
26 28 1491
1491 26 28
28 26 1491
1268 230 277
277 230 1268
230 277 1268
619 807 1108
807 619 1108
1108 619 807
751 10 1374
1374 10 751
10 751 1374
1098 39 1055
1055 39 1098
39 1055 1098
612 907 1426
1426 612 907
907 612 1426
36 952 1445
952 36 1445
1445 36 952
317 62 823
62 317 823
823 62 317
1136 469 1130
469 1130 1136
1130 469 1136
1114 302 558
302 558 1114
558 302 1114
279 525 944
944 279 525
525 279 944
186 1074 1291
1291 186 1074
1074 186 1291
8 1063 1327
1063 8 1327
1327 8 1063
1356 738 1391
1391 738 1356
738 1356 1391
165 219 378
378 165 219
219 165 378
758 1004 1316
1316 758 1004
1004 758 1316
130 59 1400
1400 59 130
59 130 1400
817 94 980
94 817 980
980 94 817
185 979 1097
1097 185 979
979 185 1097
714 391 1244
1244 391 714
391 714 1244
454 83 1417
1417 83 454
83 454 1417
1279 596 746
596 746 1279
746 596 1279
778 79 169
169 79 778
79 169 778
184 386 1190
1190 184 386
386 184 1190
21 1233 1285
1285 21 1233
1233 21 1285
1011 618 1288
1288 618 1011
618 1011 1288
601 1179 1455
1179 601 1455
1455 601 1179
457 517 1069
517 457 1069
1069 457 517
1088 850 1007
1007 850 1088
850 1007 1088
819 335 996
996 335 819
335 819 996
1227 409 415
415 409 1227
409 415 1227
901 312 372
372 312 901
312 372 901
61 156 775
156 61 775
775 61 156
880 1080 1471
1080 880 1471
1471 880 1080
879 1154 1223
1154 879 1223
1223 879 1154
352 329 1159
1159 329 352
329 352 1159
71 338 1153
338 71 1153
1153 71 338
766 245 891
891 245 766
245 766 891
1175 988 1141
1141 988 1175
988 1141 1175
267 1310 1339
1339 267 1310
1310 267 1339
719 301 861
301 719 861
861 301 719
419 559 1094
559 419 1094
1094 419 559
928 81 88
88 81 928
81 88 928
870 325 1162
1162 325 870
325 870 1162
1109 239 830
830 239 1109
239 830 1109
974 86 1304
1304 86 974
86 974 1304
649 478 675
675 478 649
478 649 675
1219 306 333
333 306 1219
306 333 1219
1194 322 1303
1303 322 1194
322 1194 1303
1284 1001 1357
1001 1284 1357
1357 1001 1284
348 590 1346
590 348 1346
1346 348 590
1235 193 1489
193 1235 1489
1489 193 1235
1254 536 1138
1138 536 1254
536 1138 1254
764 374 385
385 374 764
374 385 764
572 407 689
407 572 689
689 407 572
737 1128 1253
1253 737 1128
1128 737 1253
814 609 1110
609 814 1110
1110 609 814
1134 672 903
903 672 1134
672 903 1134
686 316 939
939 316 686
316 686 939
16 152 743
152 16 743
743 16 152
1041 578 1434
1434 578 1041
578 1041 1434
911 43 126
43 126 911
126 43 911
1466 876 973
876 973 1466
973 876 1466
920 977 1018
977 920 1018
1018 920 977
320 128 1454
128 320 1454
1454 128 320
912 449 771
449 771 912
771 449 912
1101 189 368
189 368 1101
368 189 1101
318 29 711
29 318 711
711 29 318
221 187 598
598 187 221
187 221 598
991 514 1272
1272 514 991
514 991 1272
1249 362 1330
362 1249 1330
1330 362 1249
1464 246 384
384 246 1464
246 384 1464
493 1079 1129
1129 493 1079
1079 493 1129
446 67 1323
67 446 1323
1323 67 446
266 138 971
971 138 266
138 266 971
1359 402 1096
1096 402 1359
402 1096 1359
805 408 465
465 408 805
408 465 805
1320 344 1067
1067 344 1320
344 1067 1320
969 199 998
998 199 969
199 969 998
1382 194 375
194 375 1382
375 194 1382
1298 330 1032
1032 330 1298
330 1032 1298
848 677 1420
1420 677 848
677 848 1420
1490 498 731
731 498 1490
498 731 1490
857 695 1255
695 857 1255
1255 695 857
531 877 1419
877 531 1419
1419 531 877
1113 360 995
995 360 1113
360 995 1113
757 462 573
462 573 757
573 462 757
967 992 1146
992 967 1146
1146 967 992
293 905 1335
905 293 1335
1335 293 905
66 140 392
140 66 392
392 66 140
886 435 946
435 886 946
946 435 886
47 96 1267
1267 47 96
96 47 1267
250 119 1010
119 250 1010
1010 119 250
943 866 1354
866 943 1354
1354 866 943
643 585 706
585 643 706
706 585 643
291 810 1241
810 291 1241
1241 291 810
1482 733 1231
1231 733 1482
733 1231 1482
749 387 813
813 387 749
387 749 813
705 18 1281
18 705 1281
1281 18 705
354 51 834
51 354 834
834 51 354
532 100 1376
1376 100 532
100 532 1376
148 64 962
64 148 962
962 64 148
935 480 963
963 480 935
480 935 963
1405 395 1225
395 1225 1405
1225 395 1405
1265 452 537
537 452 1265
452 537 1265
1444 1076 1131
1076 1131 1444
1131 1076 1444
626 698 931
931 626 698
698 626 931
890 645 882
882 645 890
645 882 890
63 220 1360
1360 63 220
220 63 1360
1049 399 638
638 399 1049
399 638 1049
1187 101 520
101 520 1187
520 101 1187
175 506 975
506 175 975
975 175 506
458 502 1474
1474 458 502
502 458 1474
1036 324 562
324 562 1036
562 324 1036
398 512 663
512 398 663
663 398 512
670 297 895
297 670 895
895 297 670
613 889 999
889 613 999
999 613 889
262 937 1027
937 262 1027
1027 262 937
1213 634 1051
1051 634 1213
634 1051 1213
1496 303 530
303 530 1496
530 303 1496
1119 358 989
358 989 1119
989 358 1119
1433 115 213
115 213 1433
213 115 1433
1440 599 1385
599 1385 1440
1385 599 1440
195 146 414
414 146 195
146 195 414
240 135 565
565 135 240
135 240 565
1164 546 657
546 657 1164
657 546 1164
1362 592 1081
592 1081 1362
1081 592 1362
543 163 1262
1262 163 543
163 543 1262
276 342 837
342 276 837
837 276 342
765 630 1328
630 765 1328
1328 630 765
797 1062 1375
1062 797 1375
1375 797 1062
862 685 941
941 685 862
685 862 941
122 203 614
203 122 614
614 122 203
283 1107 1165
1165 283 1107
1107 283 1165
616 182 223
182 223 616
223 182 616
1337 75 242
75 242 1337
242 75 1337
383 767 773
767 383 773
773 383 767
583 422 579
422 579 583
579 422 583
948 838 1193
1193 838 948
838 948 1193
1416 740 1195
1195 740 1416
740 1195 1416
1137 680 1467
680 1137 1467
1467 680 1137
687 202 499
499 202 687
202 499 687
776 597 763
597 763 776
763 597 776
894 323 491
323 491 894
491 323 894
208 118 777
118 208 777
777 118 208
551 50 529
529 50 551
50 529 551
76 1181 1366
1181 76 1366
1366 76 1181
1203 444 1047
1047 444 1203
444 1047 1203
1479 287 1100
287 1100 1479
1100 287 1479
1135 241 369
241 369 1135
369 241 1135
451 214 1495
1495 214 451
214 451 1495
234 1343 1436
1343 234 1436
1436 234 1343
430 978 1242
978 430 1242
1242 430 978
1340 41 65
41 65 1340
65 41 1340
1209 557 1326
557 1209 1326
1326 557 1209
1270 84 703
84 703 1270
703 84 1270
1465 871 1365
1365 871 1465
871 1365 1465
328 389 665
389 328 665
665 328 389
259 603 1090
1090 259 603
603 259 1090
1460 49 1422
49 1422 1460
1422 49 1460
600 406 780
406 600 780
780 406 600
785 365 728
365 728 785
728 365 785
1443 413 986
413 986 1443
986 413 1443
984 210 490
490 210 984
210 490 984
827 288 1389
288 827 1389
1389 288 827
405 1082 1332
1332 405 1082
1082 405 1332
447 196 865
865 196 447
196 447 865
