100
269327 130001
388926 862331
244266 676579
927344 69198
345996 481655
242258 747990
274800 27590
6983 330151
654214 954690
434962 782432
250502 769670
780241 416905
929106 300085
446191 786534
816406 42784
268798 231376
916875 228335
388731 115791
417518 415347
419652 171956
242484 729316
754367 817372
584402 960870
647458 908741
907353 519103
851862 808790
481420 412071
307732 161890
617524 546638
657851 79533
606633 854722
525223 225836
147166 586798
350803 968906
490588 104751
516257 481495
501759 383486
760832 22510
89872 966407
464042 83867
845634 543323
261218 565981
934397 24385
548721 717121
12395 614514
737408 195631
401990 129413
574673 429672
118739 638558
803564 547240
350528 198656
6814 634568
874740 274900
991099 272047
991876 695479
823982 882315
628900 933216
381160 341688
178199 334020
124647 112530
765409 514400
874844 802581
682209 918410
480687 314026
651554 980724
754064 164975
351137 557484
893909 752953
412652 448173
494737 227250
900051 186348
662516 332029
22464 266514
773577 839688
380190 269614
958556 179337
784315 392117
401786 128881
657495 399342
7249 146798
273103 807248
380999 284672
84212 645939
456125 708642
631315 697574
301191 265872
703008 968817
66999 739782
801301 160445
341800 632580
697965 374257
1227 646441
439350 875148
187937 633037
786062 729107
372182 520085
315221 668929
797882 279756
796737 904489
231522 553390
