100
815534 76120
341946 571503
196966 442748
283371 3992
817660 464133
938178 713236
701218 550939
221407 513238
257460 306627
520961 228576
753263 291873
849761 783420
546784 590149
927571 76385
393863 120869
522264 463469
73428 656661
868028 663348
908871 926890
481053 675009
235904 45777
882613 411792
919333 382733
128136 800119
960768 974907
896985 627168
990932 697384
306937 783254
548006 959821
991106 915222
703431 439283
163246 541806
367866 446717
568743 440583
162759 174895
256831 845692
28541 308382
122496 157532
596024 505441
265005 12222
42870 708607
183920 790411
642806 112063
587515 257495
619117 353229
164959 512864
347123 475368
907162 134309
582011 754677
446508 318572
813701 968692
505091 169452
288688 212082
715166 490935
736133 170818
640268 152928
485323 737670
558918 293478
449436 346432
995317 610430
216896 999710
133773 708059
422040 342230
266540 368500
889055 193651
443327 530202
508353 436109
876754 676247
203290 181736
525772 346640
70415 291463
671380 742988
589585 665183
301158 191314
238569 191618
33458 378578
31414 420430
774298 106320
949261 883420
711047 766122
221033 470076
298395 963921
792169 12021
948836 252541
167909 260591
750136 593091
34035 981755
491405 740878
174853 542515
538309 12418
339019 698969
588427 180896
28667 955269
30703 733649
848586 213000
948132 993954
836933 59134
562303 9587
615166 445024
916076 501737
