100
394782 321601
374270 704529
862020 272522
461914 669746
876111 442619
444618 421081
248164 991309
655025 922877
769789 65777
897588 282980
274361 212444
342683 6090
503849 916156
880522 434343
201036 401507
316581 4092
432755 888206
188604 364326
354582 622700
857893 843363
965948 186572
270634 41604
668957 206869
223069 215608
656916 164201
230497 689955
911836 198783
499236 751902
543702 738152
149807 299683
661505 252907
74996 185660
841976 494203
51118 733725
880007 873972
813222 148167
829085 683526
44077 208018
694886 224278
918704 138065
220317 153360
543088 522609
86546 940969
741364 26196
620694 485009
632139 661840
75060 482998
602276 5635
385130 229644
454990 36061
120654 632568
220496 982251
248392 185844
778258 846222
773362 31288
710696 204245
758271 3407
302197 320315
629154 478344
587985 112949
813083 11931
634833 724042
625633 412318
470126 569733
922112 15923
386740 307680
831604 422360
636896 465281
324601 619996
648492 789316
459258 604561
275878 42094
257536 841645
977227 957103
504137 638962
575469 222734
187021 941403
248829 763380
113136 360526
878366 806790
759089 586288
498380 221617
185092 191977
687606 679997
496232 61152
73921 779194
331736 751122
315405 517486
177831 678060
209832 247607
516759 632666
950772 408638
421979 499346
15025 259038
899341 733721
755071 345057
733390 174144
75322 617336
935508 410334
380145 861401
