1000
<<<<<<< HEAD
735695 8174
559003 298951
615007 936679
537337 642160
130159 160718
79988 857082
465075 984600
494350 538925
121395 770689
702146 812699
239646 241152
830348 396800
510243 83367
791511 398064
778186 171290
30964 328489
886443 122408
313680 116305
155282 665331
934041 126629
192093 415659
118878 497529
755131 302651
950466 895468
299733 804475
303709 174566
738606 446969
141138 852512
890667 94446
723456 353160
907430 787730
569226 219290
146279 479891
5947 681370
587885 335864
79824 204557
985167 180572
276658 603162
721347 385588
906716 846165
711847 42254
730220 721858
137836 13244
654925 715108
21401 438717
287994 863860
222400 897185
67606 264992
782621 792255
174878 431322
148131 398809
903536 292875
56270 607416
300855 74270
177270 598612
742237 718523
276318 229956
992257 157484
616452 89339
626260 990198
792802 256205
758012 937020
783633 446771
574449 582524
70346 813095
458957 383398
365955 581206
74769 787202
59405 497574
673792 356901
559992 375115
816795 880821
280005 206653
452798 671187
103833 594177
924110 79842
132769 438192
858781 775047
221892 664091
49447 531596
765384 876820
274901 537194
965082 451144
639704 799502
538918 20195
861277 386750
894934 448460
818316 510974
768849 147141
787174 155812
854314 812067
94742 161242
627790 317375
101440 451957
844390 815790
298470 707564
422785 103940
718849 788593
944468 956022
301062 734113
653780 173472
419771 882674
515705 92269
950914 536966
783483 145714
788500 235957
541938 86784
413693 450219
397352 851926
384856 466712
974645 188740
141395 969654
317752 899062
24222 349878
53357 397175
7987 970913
57955 144128
877867 421324
520432 331399
781358 271431
197007 666412
226966 901915
28630 414485
601094 749223
729246 36108
299068 827186
33802 646501
813317 796554
246691 739001
328286 500581
143231 180038
571711 581215
968070 184393
366743 987829
202699 402654
83535 578275
171846 298737
998662 486081
851955 475637
706593 455428
453280 509117
633181 392381
484662 789194
217476 460953
979323 436452
867329 680849
183346 97905
322391 768801
377488 204224
508021 125844
911773 541774
576191 215452
989395 667614
548834 305807
184048 120254
966041 583341
630157 197504
470566 774570
414495 394814
164834 284517
899141 671181
539178 574951
142963 362282
819148 851385
300601 342014
235324 943246
30259 480812
683008 357041
722176 350516
596540 139618
237582 490353
691086 267587
411669 335957
775590 362288
851660 486434
438367 20508
167253 899165
417779 399979
906271 751714
34314 192569
588208 625201
484010 32878
538387 473131
918241 501792
279909 25985
799959 610679
470507 596410
496932 417147
645259 289044
437523 237802
457188 65782
484196 622996
627030 144260
246804 535413
988481 259513
203231 892726
194316 946504
909445 545327
394801 390376
101771 615207
382533 455363
857925 615262
192717 287048
93446 519501
641134 853887
893528 960343
106564 266671
12763 230589
412403 649751
950981 634370
235720 349409
453797 364829
979118 777506
212546 178802
568545 236241
775444 569521
913219 79099
531270 330043
411078 793336
718748 127010
40095 385813
38286 878401
425470 744219
852456 650029
891103 593411
425674 243470
767663 76305
120152 117605
27016 618078
156650 610824
295113 604526
560874 796414
786496 180556
921526 623772
214912 569786
149247 355925
772502 187313
184044 727635
452131 89285
90483 472269
774211 156951
980686 586993
334747 2918
160814 768298
360233 525505
465289 655324
191313 912296
270527 221927
483176 803233
48305 60255
420002 848807
953399 258834
700274 536585
164816 157373
975567 488757
6278 77856
946040 490673
628969 160198
727621 296614
404470 719738
319029 40247
964323 209412
98481 611556
946484 278730
315118 662041
900266 687329
612313 73246
811842 774
354367 434591
991344 672254
90061 57144
513516 754285
160350 998213
534103 420068
333272 203100
843467 117971
75799 814275
231573 861690
69198 675713
657077 261459
730959 610862
147547 160213
901551 87311
458823 210893
851558 206478
823416 391992
15618 388464
515604 442920
762474 742046
501647 255235
982533 614477
491909 799176
905214 214823
159154 822335
61251 94012
181993 267784
165041 412638
881242 977964
287063 285489
632546 700449
972527 997131
819243 501384
16420 214785
430638 347283
886365 208397
697234 637281
824798 284549
82716 441185
350279 151621
278130 216647
281731 975513
978015 590485
290873 711055
898002 422052
917875 885985
482240 167688
776906 779501
631912 66645
851644 537321
714234 450000
803559 412916
677395 393162
305994 836516
690970 540941
674952 68569
834464 817989
548568 274997
100973 251510
648709 875373
438748 568866
281170 965957
748012 481975
529636 143241
63147 359579
151140 686844
602744 360855
150086 694768
558823 810710
265869 706709
899209 118283
137907 942747
278090 342785
857141 397665
702439 518859
62089 386588
132019 352840
490073 353608
715252 928340
944468 965030
527073 78802
701212 380411
638648 413529
482937 981487
110176 474491
608664 602034
477606 277477
826170 529906
14379 701349
460946 452979
268351 775216
718125 116301
607856 903156
278822 278951
953601 905162
294880 297700
825502 981353
253315 517573
924697 983714
372971 682314
13710 637671
492145 888583
114500 652165
581714 768464
632595 431571
204567 266296
352555 506538
334795 363563
869312 554596
610035 591783
49683 574599
282275 589490
920728 50851
425773 404523
272691 955605
200064 284344
301835 753942
589849 200290
756969 2228
581381 142923
671486 61688
413213 184820
76869 562167
525123 319411
884263 341540
107443 711014
751797 288849
381848 659537
972359 875992
279400 675924
637069 965328
555053 25364
678735 818387
441939 978999
708056 163810
677913 442747
183304 685189
476212 631701
233577 673329
515803 575130
168696 644169
807136 73442
29388 140539
307761 648697
233327 689219
890010 678130
422828 56892
708159 511984
841591 264658
346916 32873
139655 324786
229291 405120
11852 170715
404540 207625
420297 669910
955630 783195
556546 121080
587514 905616
787278 285946
732839 932324
721698 609719
936410 726185
839068 916092
204857 860130
282778 528988
50716 357802
450160 492874
769936 143318
146713 815121
971626 947230
218133 60149
841627 673233
56787 406831
799303 235561
430099 447266
915089 567253
320719 39301
379503 345676
166453 811217
998732 690565
709587 516966
347981 186923
919758 951520
813455 602161
668365 704172
544711 441577
879678 655133
513143 126266
182757 372230
155818 173069
166327 888028
954182 469534
348185 606286
808318 457087
89174 165398
959540 842128
325117 346202
920261 516746
597729 74372
610483 921315
524933 884406
450503 174485
239356 821183
899857 749137
697656 531820
291621 823616
16613 661470
69594 154243
450226 990491
991061 287456
30124 361054
539314 429020
714122 289736
532389 577492
773177 482788
105010 277132
62524 906600
594052 417480
661459 440552
359685 599242
411890 149388
699969 937692
387974 661226
152235 620163
73009 981788
906506 537583
178367 419292
531422 563831
933665 557187
468093 609545
530394 880036
887696 837505
570755 110309
339679 424422
8175 576988
80974 321421
963581 176629
711086 299526
744453 39615
351471 232017
364899 666145
433538 440032
660489 342103
310910 179632
23532 192131
780914 426567
289654 930792
386446 49325
754969 623221
983454 590933
781627 172964
117552 945654
397422 747805
223568 589652
333608 42541
90526 562815
754523 78140
678244 133233
625802 168271
207053 868609
437154 224786
107768 950484
608135 489361
537593 374759
456993 393759
439708 132338
589231 109460
669936 388061
657613 446052
888836 169406
15478 816945
364230 288071
482896 282340
793303 463351
835549 727348
370533 688830
712759 215803
376635 946649
64114 475980
279352 826000
896741 125547
309187 137509
380143 128806
964700 906349
939933 140894
821374 466415
781642 221354
767691 495782
875571 621101
184312 571510
973661 137011
607564 610821
469279 886707
416497 308551
412663 121254
507658 417520
756483 93939
990293 586712
137298 944467
253340 145579
815484 646374
558823 396151
426631 321300
879672 841455
739849 74780
418012 100444
254929 637186
665799 23255
448374 459436
845316 842176
630287 450487
462485 247307
975305 560195
287427 396146
684678 550233
415616 755388
852956 528683
513791 201638
86339 632369
290788 454127
173869 270985
175068 821227
583596 935209
683516 912720
877352 414827
954448 654887
21786 254119
212738 675011
487422 424012
338926 259468
906762 46067
384830 208202
730642 896534
228732 908421
660816 525234
960727 4321
629756 80558
45479 185761
706613 931134
678232 88139
887280 290448
160550 34017
245109 179800
244751 636636
370248 309642
865599 741406
241376 309651
879704 667662
912584 779893
509860 803891
771869 877536
156136 277087
304396 968635
532926 278285
908578 937608
849816 761124
615235 765634
432849 977476
976507 818632
375432 863469
36237 529922
1678 132464
14637 697800
915205 148783
782903 37645
917558 204104
244193 174096
835837 476247
408527 435074
234912 23296
821327 205966
380548 195629
723929 97304
462930 117929
26150 215858
571621 689869
489810 385954
493743 32242
656811 7058
222234 771474
712132 738248
656697 623186
389905 721513
639921 754851
587409 455798
962989 815068
332532 76821
841813 108855
571125 125590
574858 818094
217822 577983
507657 794534
299557 562650
698037 96950
414371 36080
655042 829905
890955 303853
517056 802566
625191 704579
509714 89222
983734 358123
921370 309976
541592 433280
350804 791927
964984 620059
781259 348322
462507 393555
974253 617393
90475 925984
817289 412836
107884 740036
858579 33382
680864 496379
694630 594136
504261 305241
431768 970612
550235 901194
262007 289267
412666 170764
341272 318875
527219 918365
37578 337614
459356 581082
465194 868285
201825 965218
668096 909173
979497 209640
552482 502265
452573 645248
426457 649570
294326 840202
576553 317997
127461 87503
659362 644904
916311 168449
349497 228070
380434 520436
677238 34979
612988 711452
102619 734694
957251 636576
262357 390270
701035 373991
677845 611874
869029 263216
217486 452743
389956 426496
111811 263449
355748 220896
353358 504513
82984 530004
208034 834723
677953 555360
881849 697093
963216 225979
900424 952346
637431 82419
740296 463929
479898 452003
165203 138197
359754 69144
892320 33798
808400 538472
162623 318693
130764 647086
972016 685867
693936 213817
290009 951765
652825 613540
387206 878807
229321 814812
144559 899860
938276 288712
636018 62013
304153 959700
582941 677458
82142 363996
874495 736683
119497 253731
196174 513012
317 945551
335491 877186
202814 260501
823024 504784
980615 392655
370435 36645
236818 651365
284060 36113
163594 302145
613293 217807
622428 450880
741993 669421
734005 840888
980912 386812
132425 76539
732406 293541
54214 612967
484512 191310
878298 895195
181792 179525
705215 79739
995540 342460
634323 519130
840097 562225
997954 405208
37143 125662
727028 458162
88825 186199
105145 803110
981119 71382
57970 483098
705258 59298
55359 753485
738541 968771
588319 319139
358398 522205
480410 539215
384599 122450
915931 823697
644657 799265
271874 299137
455976 435405
56236 178513
735719 614476
36007 16736
32815 514864
466127 332367
843800 760338
570215 645766
290159 721390
384075 872995
170406 803268
278699 36498
677585 669146
278224 904678
646856 643944
424077 971835
436881 278613
355562 883655
3571 770859
630084 885147
272625 914579
241756 855984
593702 987138
74194 227380
405963 560882
369166 334995
936194 946970
775782 132628
670330 753704
142776 504425
112816 25107
715969 753161
781707 461921
120080 693817
38918 913797
563100 459300
588828 503162
19620 52304
855370 840626
549102 143603
964466 249430
837799 292448
676456 67185
755813 512233
801874 576599
194774 741636
779822 965791
352593 31161
993500 950515
155483 398141
340829 281143
229851 837785
578907 779835
133798 586702
494473 363399
989692 998623
226793 545613
292121 192786
117280 506835
1454 161520
758656 571758
71340 868203
977392 522104
124528 941761
540469 234110
315826 814500
899575 866878
63587 665491
675167 106327
92580 226420
383969 459827
639370 153345
810671 862426
427413 395503
434462 487607
716378 773542
96340 104452
404860 748669
781336 985048
802247 358631
396655 428031
657769 951292
464960 284594
604510 43445
444238 50456
222196 898555
577237 442458
103938 266916
365710 730552
364096 394366
207447 382564
678143 127897
514858 631685
468803 733089
323532 923097
433640 525042
449008 696725
348426 44354
530008 311563
338682 932893
791067 546438
69943 581835
978423 798523
71586 872552
872071 319999
666368 127663
234141 315866
272782 364137
109455 521580
842777 603382
219300 336285
802274 868417
440056 329630
569186 754489
107811 366078
37857 799994
846961 897642
63435 778383
456207 214605
640910 361034
75245 976588
543957 636942
8590 739819
657612 135915
50234 794784
181819 96975
555334 53753
334157 557842
731757 352954
521893 51974
597131 724539
361536 645170
121860 555136
522076 139624
163452 811180
672239 46862
162867 213453
434048 996158
354800 830495
845968 964492
587147 785856
28728 896328
347391 47822
987095 365532
152846 748820
904067 680943
905376 989012
369325 462511
107752 609350
648851 415465
351714 962670
218456 790940
726934 771196
949171 250799
302420 967468
194154 282347
208309 804832
552003 249908
623372 574299
185887 644755
376450 197681
596256 235425
858000 131250
895606 713090
539028 918244
764365 351034
106864 62061
881546 469381
912166 110761
744782 283975
888809 233128
97311 272380
31261 330788
420159 328813
213673 250787
6595 25484
981468 956026
107497 360467
426996 293832
126447 821282
61413 369896
963931 650783
663148 354278
202537 582905
785487 514652
467869 293935
721840 901091
920902 140166
354132 247264
496519 422581
786483 148509
726036 210493
419333 610288
268173 222025
220986 823391
462369 56993
630554 248584
771932 818
214101 676772
12567 903103
431338 321818
732250 563730
815882 748132
725564 619094
142739 651176
269171 412903
976069 524490
172696 332645
651368 632431
700968 644843
=======
509182 494144
332411 482961
288646 25367
602750 352357
244888 610808
616750 384713
242616 318013
831978 607122
479648 577636
459372 166669
790937 784285
420675 211114
909245 940787
951893 130490
106382 236076
884455 438635
239116 860324
282392 548773
727278 338669
395366 217480
959704 224318
461620 159283
637087 840519
195113 36896
372831 432901
238039 805894
421458 945451
840210 725305
957098 671438
196171 505411
791149 687428
869318 875206
174324 564116
985282 36144
667469 765264
681798 247319
529618 606420
592745 917796
634089 286826
423061 414793
891039 354850
853318 789926
140522 553364
33247 879
939977 14477
348346 411720
38263 477831
722693 82753
768671 909057
86630 253771
943257 89053
573912 287445
210447 672663
468312 652166
664105 692036
450441 172439
110418 81174
647170 248083
155960 822284
495685 648846
883419 828674
568071 533815
897549 742502
165465 412324
301499 268094
988189 621095
708805 747807
377052 139429
435654 601958
43752 593645
956802 99340
166922 708156
298842 931392
35532 719080
528841 518163
738356 856705
160053 831826
104033 359108
970411 908587
821400 319041
444513 902000
765871 413668
605430 196688
24994 723791
997175 471888
650513 786751
873590 196786
628052 579148
326844 396501
433460 706362
96765 114208
957350 99741
271143 891019
287423 386340
730157 193632
232453 670145
491800 27794
16529 760478
819438 645110
165108 638134
396689 764043
481070 527367
645612 513771
513440 579056
981045 345870
679643 186060
543940 626890
343942 298951
15062 347687
210614 203426
465310 433171
331509 358734
920203 359215
874696 163112
290833 659144
225596 305916
80962 559613
214453 763422
487007 369064
622055 544438
775823 994131
201427 510254
702491 783359
511101 531188
368748 54670
917696 254592
573883 882968
394389 798933
978323 668023
171318 183634
462009 978223
133230 102985
933775 375892
510307 172311
964864 28795
866095 325492
366063 138584
530644 230935
19089 461556
917017 646964
752474 246368
149483 363948
599017 263979
611784 74287
649202 309756
10537 334996
239569 929855
152287 498477
757252 580778
698962 829131
799989 277922
528882 651663
524770 162525
377465 699634
659519 550168
762731 488501
264598 216992
435478 60244
302799 798367
465035 753859
321165 808755
399105 799279
140564 553331
998662 405148
966787 504581
742591 455123
385993 674825
598027 748389
749475 139359
373504 723793
818066 782855
6401 972864
349607 699154
955056 535092
182948 15487
483531 46492
818568 832824
80119 947602
527228 313827
404252 280747
736264 29908
107492 860672
391744 469734
259785 730406
465050 51766
357554 359436
513874 590771
739655 345432
868232 149049
41847 569882
906612 30353
160842 748903
117992 385545
654371 544023
221663 243419
239865 867202
740108 787351
983986 562123
126885 384045
169854 560375
838261 65393
236717 219801
952331 210361
12484 765942
412872 677171
996889 32209
334925 95329
408404 675556
528770 431577
699168 405110
156463 921599
553324 176465
780508 914609
144874 666380
207240 617237
117097 447276
550342 900977
54556 866541
952916 393718
652925 813282
93375 553251
865347 558033
279410 743209
983446 561965
928254 219737
437934 651856
31607 923179
632486 115715
267347 361343
529054 717175
680212 63572
932762 491510
19010 594905
274727 655499
903932 570457
989165 373817
983426 969387
426934 398327
50087 587188
991232 191409
122751 447017
338172 729406
165414 145772
44087 992170
603324 722261
733578 772752
36060 476713
62364 174909
564473 973030
62594 9017
201506 710006
483837 570597
19956 830382
107899 945648
604307 17957
976477 431705
437348 755371
651110 391071
250092 607969
821075 125180
358716 266016
240947 328416
794687 581160
89060 730930
344306 86188
674821 341348
19971 219003
944054 616566
107545 920296
14928 41362
967931 155549
848118 128770
816825 7915
290119 878444
114309 772792
831213 348811
150668 19121
522069 821795
500918 521876
948536 791337
73777 414112
132751 59138
601058 194071
457053 787115
821573 482567
749683 458835
385370 224200
845622 794096
108158 90925
127921 812440
568388 649041
77783 736635
243088 553543
172571 10789
779949 456642
647048 279973
682255 47142
857106 17730
981465 896182
283964 277949
664524 325155
840012 957304
240464 511054
96766 671809
53352 548233
154494 732833
918519 261125
129550 435640
20213 364468
853881 883223
602919 661728
936934 795266
546585 850878
247767 925023
785475 841118
844971 244214
888339 407482
614083 554849
904808 554481
162082 948554
338007 935892
922937 930277
928177 664603
896401 79778
575379 320054
869721 751807
647323 137739
273032 126781
30174 708197
428461 12173
431917 943341
996731 893064
940810 740586
301575 535733
641257 991345
404766 550216
563056 646777
916771 497384
979770 507603
532435 239994
765871 832343
407402 193656
362932 594763
125795 499598
21098 752671
879237 932191
254590 83248
572896 508019
720483 609485
956414 519584
370172 999810
825044 943629
594015 305572
517882 851058
84250 398437
467736 788902
286571 14357
790778 88992
441393 618861
967982 859455
464678 574247
40969 147145
490858 73149
502462 147331
290421 694980
493710 883105
786038 396959
464482 930527
729822 910661
533634 970935
125912 5603
319442 577209
256438 656267
148838 215783
628263 286897
503379 530429
219686 746420
208762 621563
704487 326989
90382 125838
490056 343075
225623 525127
330162 86981
871349 145170
749820 83241
645662 111401
121854 501180
514150 157353
755083 962180
927385 608312
6580 75006
495134 407284
843900 984714
279608 987459
328016 531183
758143 340652
806950 470263
442558 450729
905531 644375
705613 525489
308938 29465
983403 123289
268989 492785
213324 209672
76570 706391
148065 959739
881926 662829
851972 66762
675846 409845
142350 317231
59402 499854
508746 433637
766177 843641
420855 718733
645207 567612
889365 162486
534592 778248
729053 769111
984882 526128
949708 46853
391637 111505
954457 389071
172790 914805
50576 827272
293905 513881
51056 204609
984862 208400
184200 956093
247255 691052
369392 202898
117255 822049
494404 704142
290454 617626
587074 625337
617570 910074
716168 981749
372812 519718
840154 563167
751734 498641
221002 95412
979398 30333
47500 111832
715966 749587
148659 420941
192382 240835
508505 759865
581466 540477
731185 928507
456548 964079
67249 107537
752943 241596
751316 646125
827373 118512
862700 68733
515437 342416
59263 169490
894135 475953
489714 699322
821174 190032
910275 940694
786726 717048
704815 245058
811592 104704
774372 126393
830755 466278
34513 666135
272413 771887
909941 590223
825522 581388
999373 87948
76894 850542
723501 508665
146511 887009
253030 5722
2005 93905
927522 173351
262439 42305
728416 604807
625172 351347
926712 960106
25992 934453
231493 822846
629071 96431
781541 377815
911589 26180
845209 749726
928486 985422
972970 318230
605867 605020
277611 812207
720701 209144
687476 684079
53435 98087
124022 407681
953285 646578
457958 939211
863116 771644
157843 598044
758552 467987
831253 78064
913931 456945
960865 276353
869412 812068
815868 304176
602317 903317
377310 762561
597463 594223
72222 134619
105589 760577
596132 433894
173896 505211
736838 493100
511874 648524
213955 925763
993929 306139
184678 836350
769366 73125
193831 852462
398093 294752
298204 944202
744646 51232
418006 509494
362162 728293
254654 282685
452978 336773
812605 311755
666533 515701
929741 595797
504630 216738
12852 166299
243564 228762
115924 725938
728614 516577
963926 942748
969011 930466
822411 343056
866212 832324
706053 471824
346719 242574
833988 615456
833333 267753
140870 448221
521017 548923
30446 847702
19413 509570
872607 440487
818223 217645
99541 221768
594567 678165
90948 300851
536161 354086
702412 620173
433828 171026
8840 839525
380602 9670
263787 69529
772683 342536
488979 876201
319229 962367
12429 10765
845141 704295
927696 365226
562274 625724
421915 80871
636688 724150
242297 643042
895815 377281
646299 428744
576852 127252
761741 527736
628276 713335
210019 917970
575797 538630
545514 86020
989134 717051
562374 370585
562245 370476
170888 303643
600700 404225
834858 786525
357866 740959
811782 955670
118844 181592
400565 840622
826766 941209
435061 57937
435145 555594
166067 292145
561055 111115
517983 270601
939411 186479
680511 822317
77195 227463
676270 66099
326201 668703
261573 659239
853565 422250
9457 557106
879497 266377
861637 575678
940940 143207
281413 746133
137135 408324
229738 171856
232989 850128
728531 53251
771804 395695
278596 404484
508845 291509
210859 763065
840762 479682
161879 365741
953992 38501
913702 486968
765039 698725
885368 199081
443938 598888
696651 384617
926247 9293
826225 184849
480412 930716
926092 728611
814392 495571
884460 436900
354853 321654
653721 166873
513483 855528
858944 759208
732453 866197
933812 920569
496964 568671
170267 779785
263003 470215
412653 820946
130096 509770
527372 709044
348287 286706
49408 422625
633831 531832
835384 571448
290879 245673
768680 625691
71864 409707
254865 700776
962123 753846
994103 439683
866942 395113
616055 494813
40595 536832
256044 519898
99343 454709
393312 486629
836401 93819
622012 600534
304386 512887
520527 552391
495645 906474
322330 85411
802849 818546
372099 50539
102284 151495
74038 276614
265152 591297
835032 328302
296498 136503
378755 661324
576151 587976
611038 38135
301814 84625
565989 106757
839879 342288
283645 725570
378717 794699
358379 155880
265065 494384
571227 699887
183480 140258
787537 956789
647141 102495
105914 98644
915409 856429
781438 959826
538014 672118
803947 540565
402105 184651
407198 716940
263169 928342
566883 929210
998706 680820
222797 442387
232994 747612
577986 213479
53355 699004
774831 360818
532068 820316
359945 407090
367766 113534
945729 461077
94606 916728
344657 690934
991508 569573
353543 623726
510944 126607
361881 276084
24105 316708
639162 535583
348010 947143
916009 841824
521883 483667
336713 732279
127673 60913
936711 236026
844663 318607
7657 501383
543129 332287
498820 852428
448518 157054
583962 184912
150732 739691
628927 868429
19873 563736
631709 500089
154657 226832
547201 758165
42700 403681
158793 301499
974073 633241
300470 101258
55393 4458
924325 629552
984124 262012
255494 555436
678659 295432
280303 444039
265742 760780
16896 150288
743534 134036
862459 816691
572188 8615
802286 605508
298009 13261
257937 418960
582909 462379
114304 571371
366276 924786
522968 541951
727157 637660
929831 920804
643809 232107
899722 518587
934874 439870
52825 654489
877540 973224
593252 871392
357875 83486
702476 923558
679991 712707
49139 157717
757140 128972
821978 653925
51677 174828
501380 756369
874625 800149
245741 77457
872582 868174
435806 307308
84108 456400
493417 753861
161856 510089
181419 807520
568082 293298
853381 280396
237748 35026
139216 91162
570113 700088
788797 842891
596662 793510
377851 391000
920173 787663
419659 840826
322939 938579
436513 874585
306496 847847
625024 389046
77087 443290
211738 511898
349287 471575
876491 971536
343156 416055
151972 734274
730839 667338
681876 561201
573234 234918
35820 929645
358956 586511
598825 234485
879319 607059
275088 532344
465856 955436
814608 965581
496736 148704
843963 501883
418538 648439
158959 532271
52981 650460
544005 268218
483700 633549
599722 932374
751506 841028
238409 171586
709393 143718
507857 434225
543302 520413
966842 303467
697307 573391
950601 926777
263010 271571
189384 993591
883059 525072
370442 20618
181987 146806
744198 40256
767837 275363
275278 890962
266722 810202
858635 416821
785835 89797
120433 226940
715204 748317
429489 726379
255340 965788
433660 835646
480042 967699
518254 985177
42553 861597
559847 152416
587739 235582
244937 583473
506806 351103
737028 995512
238290 253627
369372 214997
871817 496108
947266 235391
605973 723642
671747 644482
682948 33187
771588 760414
849216 64962
24668 393358
478734 107827
696267 372912
503788 279430
808742 750792
109859 860769
953957 874340
964099 743352
446053 437709
386330 664397
909552 240188
915827 860330
604352 950697
332111 387949
228232 473130
844904 600591
12069 350027
802467 964865
649521 885596
205922 917305
159187 515894
127667 753095
827437 143451
913544 531788
941153 995835
409314 132268
377025 564842
467194 923104
613688 886769
847518 431231
185308 127162
209686 10258
175267 169022
415294 627307
39669 300219
360589 368022
583875 951999
34132 206250
621770 122069
904145 182126
682671 223835
902280 748432
242002 994115
801620 668218
409244 938453
271483 843264
349169 402497
784659 943075
939610 587821
194753 77752
926630 96802
885126 705470
839019 9382
911067 113234
433306 634638
855437 554380
955621 647856
351972 29224
970233 999947
422939 983698
977018 686951
410327 369872
341761 637472
343475 126306
280444 833192
983299 383742
459183 864315
909855 371387
393609 472669
328478 916465
793545 915544
35835 543517
659218 772444
908667 131874
785960 944523
549118 642564
422343 318300
676376 507609
607682 146275
899782 391726
54098 571303
176142 579999
837524 502212
364992 244674
463975 650093
368564 919141
444259 385388
482995 345221
306416 218068
375017 150477
535155 45943
660794 9950
872675 548390
184130 679790
999314 249368
470315 562323
699137 679457
804836 21300
760807 975875
790210 14952
125760 433497
358764 134080
208373 798969
750160 702708
473226 773280
400758 93717
833311 512673
50455 982173
40584 640537
916800 457981
652560 136288
894542 29156
706673 637936
240749 711243
98437 400998
687741 709171
825475 276424
740429 830608
68121 278066
174940 581382
921260 338933
593254 758630
709894 370761
598290 582235
620785 140909
860713 567539
813308 26481
256455 435455
797472 490517
664881 139369
742725 779935
67451 369791
349618 558809
428134 647091
258311 734211
665260 861935
81883 895410
853352 864621
623069 870953
438099 857383
282621 930250
20635 527843
811810 591913
47075 298550
7546 13210
991586 394403
194457 276664
689829 450647
338032 485841
328925 77410
987592 96703
>>>>>>> 004aae7fa2432bd61dff5e5ce222c6ea49c2d155
