^C:\USERS\DANIE\DESKTOP\SESSION 9\INF8775 - ANALYSE ET CONCEPTION D'ALGORITHMES\INF8775\ÉNONCÉ TP2\TP2_INF8775\ALGO_PROGDYN\ALGO_PROGDYN.CPP
/c /ZI /JMC /nologo /W3 /WX- /diagnostics:column /sdl /Od /Oy- /D WIN32 /D _DEBUG /D _CONSOLE /D _UNICODE /D UNICODE /Gm- /EHsc /RTC1 /MDd /GS /fp:precise /permissive- /Zc:wchar_t /Zc:forScope /Zc:inline /Fo"DEBUG\\" /Fd"DEBUG\VC142.PDB" /Gd /TP /analyze- /FC C:\USERS\DANIE\DESKTOP\SESSION 9\INF8775 - ANALYSE ET CONCEPTION D'ALGORITHMES\INF8775\ÉNONCÉ TP2\TP2_INF8775\ALGO_PROGDYN\ALGO_PROGDYN.CPP
^E:\PERSO\POLYMTL\A2020\INF8775\INF8775\ÉNONCÉ TP2\TP2_INF8775\ALGO_PROGDYN\ALGO_PROGDYN.CPP
/c /ZI /JMC /nologo /W3 /WX- /diagnostics:column /sdl /Od /Oy- /D WIN32 /D _DEBUG /D _CONSOLE /D _UNICODE /D UNICODE /Gm- /EHsc /RTC1 /MDd /GS /fp:precise /permissive- /Zc:wchar_t /Zc:forScope /Zc:inline /Fo"DEBUG\\" /Fd"DEBUG\VC142.PDB" /Gd /TP /analyze- /FC E:\PERSO\POLYMTL\A2020\INF8775\INF8775\ÉNONCÉ TP2\TP2_INF8775\ALGO_PROGDYN\ALGO_PROGDYN.CPP
